{
    "_id": "tbwGr6FIr5WpvQ6l",
    "data": {
        "attributes": {
            "ac": {
                "value": 32
            },
            "hardness": 22,
            "hasHealth": true,
            "hp": {
                "details": "; <b>Joint Hardness</b>16, <b>Joint HP</b> 64 (BT 32)",
                "max": 88,
                "temp": 0,
                "tempmax": 0,
                "value": 88
            },
            "stealth": {
                "details": "(expert)",
                "value": 20
            }
        },
        "creatureType": "",
        "details": {
            "description": "An enormous hammer at an edifice's entrance swings down in an attempt to damage a creature entering an area, push it back, and prevent it from going any further.",
            "disable": "Thievery DC 28 (expert) once on the hammer itself and once on its joint to prevent the hammer from swinging",
            "isComplex": false,
            "level": 11,
            "reset": "The trap resets over the course of the round, and is ready to swing again 1 round later.",
            "routine": ""
        },
        "flavourText": "",
        "nethysUrl": "",
        "recallKnowledgeText": "",
        "saves": {
            "fortitude": {
                "rank": 0,
                "saveDetail": "",
                "value": 24
            },
            "reflex": {
                "rank": 0,
                "saveDetail": "",
                "value": 15
            },
            "will": {
                "rank": 0,
                "saveDetail": "",
                "value": 0
            }
        },
        "schema": {
            "version": {
                "value": ""
            }
        },
        "sidebarText": "",
        "source": {
            "value": ""
        },
        "statusEffects": [],
        "traits": {
            "ci": [],
            "di": {
                "custom": "",
                "selected": {},
                "value": [
                    "critical-hits",
                    "object-immunities",
                    "precision-damage"
                ]
            },
            "dr": [],
            "dv": [],
            "traits": {
                "custom": "",
                "value": [
                    "magical",
                    "mechanical"
                ]
            }
        }
    },
    "flags": {},
    "img": "icons/svg/mystery-man.svg",
    "items": [
        {
            "_id": "caUgV11OydLsLw1j",
            "data": {
                "actionCategory": {
                    "value": ""
                },
                "actionType": {
                    "value": "reaction"
                },
                "actions": {
                    "value": ""
                },
                "description": {
                    "chat": "",
                    "unidentified": "",
                    "value": "<b>Trigger</b> A creature attempts to enter through the entrance. <br /><b>Effect</b> The hammer swings down, making an attack against the triggering creature."
                },
                "rarity": {
                    "value": "common"
                },
                "requirements": {
                    "value": ""
                },
                "skill_requirements": {
                    "rank": "",
                    "skill": ""
                },
                "source": {
                    "value": ""
                },
                "traits": {
                    "custom": "",
                    "value": [
                        "abjuration",
                        "attack",
                        "divine"
                    ]
                },
                "trigger": {
                    "value": ""
                },
                "usage": {
                    "value": "held-in-one-hand"
                },
                "weapon": {
                    "value": ""
                }
            },
            "flags": {},
            "img": "systems/pf2e/icons/actions/Reaction.png",
            "name": "Forbid Entry",
            "type": "action"
        },
        {
            "_id": "pLuxXYKq1Wi28Czn",
            "data": {
                "attack": {
                    "value": ""
                },
                "bonus": {
                    "value": 28
                },
                "brokenThreshold": {
                    "value": 0
                },
                "bulkCapacity": {
                    "value": ""
                },
                "collapsed": {
                    "value": false
                },
                "containerId": {
                    "value": ""
                },
                "damageRolls": [
                    {
                        "damage": "6d8+20",
                        "damageType": "bludgeoning"
                    }
                ],
                "description": {
                    "chat": "",
                    "unidentified": "",
                    "value": "<p><span id=\"ctl00_MainContent_DetailedOutput\">On a hit, the target is knocked back 10 feet and must succeed at a DC 30 Will save or be unable to enter the edifice through any entrance for 24 hours (on a critical hit, the target automatically fails the Will save); no multiple attack penalty</span></p>"
                },
                "equipped": {
                    "value": false
                },
                "equippedBulk": {
                    "value": ""
                },
                "hardness": {
                    "value": 0
                },
                "hp": {
                    "value": 0
                },
                "identified": {
                    "value": false
                },
                "invested": {
                    "value": false
                },
                "maxHp": {
                    "value": 0
                },
                "negateBulk": {
                    "value": "0"
                },
                "preciousMaterial": {
                    "value": ""
                },
                "preciousMaterialGrade": {
                    "value": ""
                },
                "price": {
                    "value": 0
                },
                "property1": {
                    "critDamage": "",
                    "critDamageType": "",
                    "critDice": 0,
                    "critDie": "",
                    "damageType": "",
                    "dice": 0,
                    "die": "",
                    "value": ""
                },
                "property2": {
                    "critDamage": "",
                    "critDamageType": "",
                    "critDice": 0,
                    "critDie": "",
                    "damageType": "",
                    "dice": 0,
                    "die": "",
                    "value": ""
                },
                "property3": {
                    "critDamage": "",
                    "critDamageType": "",
                    "critDice": 0,
                    "critDie": "",
                    "damageType": "",
                    "dice": 0,
                    "die": "",
                    "value": ""
                },
                "quantity": {
                    "value": 1
                },
                "rarity": {
                    "value": "common"
                },
                "source": {
                    "value": ""
                },
                "stackGroup": {
                    "value": ""
                },
                "traits": {
                    "custom": "",
                    "value": []
                },
                "usage": {
                    "value": "held-in-one-hand"
                },
                "weaponType": {
                    "value": "melee"
                },
                "weight": {
                    "value": 0
                }
            },
            "flags": {},
            "img": "icons/equipment/weapons/warhammer.jpg",
            "name": "Hammer",
            "type": "melee"
        }
    ],
    "name": "Hammer Of Forbiddance",
    "permission": {
        "default": 0
    },
    "token": {
        "actorData": {},
        "actorId": "tbwGr6FIr5WpvQ6l",
        "actorLink": false,
        "bar1": {},
        "bar2": {},
        "brightLight": 0,
        "brightSight": 0,
        "dimLight": 0,
        "dimSight": 0,
        "displayBars": 0,
        "displayName": 0,
        "disposition": -1,
        "flags": {},
        "height": 1,
        "img": "icons/svg/mystery-man.svg",
        "lightAlpha": 1,
        "lightAngle": 360,
        "lockRotation": false,
        "name": "Hammer Of Forbiddance",
        "randomImg": false,
        "rotation": 0,
        "scale": 1,
        "sightAngle": 360,
        "tint": null,
        "vision": false,
        "width": 1
    },
    "type": "hazard"
}
