{
    "_id": "dcArzJ4ylKFshbbp",
    "content": "<p><span id=\"ctl00_MainContent_DetailedOutput\">You have always felt a connection to animals, and it was only a small leap to learn to train them. As you travel, you continuously encounter different creatures, befriending them along the way.<br /></span></p>\n<p><span id=\"ctl00_MainContent_DetailedOutput\">Choose two ability boosts. One must be to <strong>Wisdom</strong> or <strong>Charisma</strong>, and one is a free ability boost.<br /></span></p>\n<p><span id=\"ctl00_MainContent_DetailedOutput\">You're trained in the Nature skill and a Lore skill related to one terrain inhabited by animals you like (such as Plains Lore or Swamp Lore). You gain the @Compendium[pf2e.feats-srd.Train Animal]{Train Animal} skill feat.</span></p>",
    "flags": {},
    "name": "Animal Whisperer",
    "permission": {
        "default": 0
    }
}
