{
    "_id": "3w6cSTa3Zc4z2ygu",
    "content": "<p>New realms rise constantly in the River Kingdoms, and you intend to lead one of them. Making your reign last, however, will require both strength and grace.</p>\n<p>Choose two ability boosts. One must be to <strong>Wisdom</strong> or<strong> Charisma</strong>, and one is a free ability boost.</p>\n<p>You're trained in the Society skill and the Politics Lore skill. You gain the @Compendium[pf2e.feats-srd.Courtly Graces]{Courtly Graces} skill feat.</p>",
    "flags": {},
    "name": "Aspiring River Monarch",
    "permission": {
        "default": 0
    }
}
