{
    "_id": "5eB5SefI6OlARL7q",
    "content": "<p><span id=\"ctl00_MainContent_DetailedOutput\">Piles of legal manuals, stern teachers, and experience in the courtroom have instructed you in legal matters. You're capable of mounting a prosecution or defense in court, and you tend to keep abreast of local laws, as you never can tell when you might need to know them on short notice.<br /></span></p>\n<p><span id=\"ctl00_MainContent_DetailedOutput\">Choose two ability boosts. One must be to <strong>Intelligence</strong> or <strong>Charisma</strong>, and one is a free ability boost.<br /></span></p>\n<p><span id=\"ctl00_MainContent_DetailedOutput\">You're trained in the Diplomacy skill and the Legal Lore skill. You gain the @Compendium[pf2e.feats-srd.Group Impression]{Group Impression} skill feat.</span></p>",
    "flags": {},
    "name": "Barrister",
    "permission": {
        "default": 0
    }
}
