{
    "_id": "5KrCZHHMZmaM3FUl",
    "content": "<p>You grew up in the soggy, squalid quarter of Absalom known as the Puddles. You're at home in tightly packed urban environments.</p>\n<p>Choose two ability boosts. One must be to <strong>Dexterity</strong> or <strong>Intelligence</strong>, and one is a free ability boost.</p>\n<p>You're trained in the Acrobatics skill and the Absalom Lore skill. You gain the @Compendium[pf2e.feats-srd.Steady Balance]{Steady Balance} skill feat.</p>",
    "flags": {},
    "name": "Child of the Puddles",
    "permission": {
        "default": 0
    }
}
