{
    "_id": "gad0K8Kvxk4auPwM",
    "content": "<p>As the Pathfinder Society's influence has grown, so too did many of its factions become wealthier and more powerful. These factions relied on a host of Pathfinders and independent operatives alike to establish trade networks, shape national politics, and more, and you were among the specialists who helped one of these factions realize its goal. These events provided you countless opportunities to develop your own contacts and negotiating skills.</p>\n<p>Choose two ability boosts. One must be to <strong>Intelligence</strong> or <strong>Wisdom</strong>, and one is a free ability boost.</p>\n<p>You're trained in the Diplomacy skill, plus either Guild Lore, Heraldry Lore, or Mercantile Lore. You gain the @Compendium[pf2e.feats-srd.Hobnobber]{Hobnobber} skill feat.</p>\n<hr />\n<p><strong>Special</strong>: You can select this background only if you have earned credit for at least 5 First Edition scenarios from Season 9 of the Pathfinder Society organized play campaign.</p>",
    "flags": {},
    "name": "Faction Opportunist",
    "permission": {
        "default": 0
    }
}
