{
    "_id": "GAWMi5F6MXXWqOpR",
    "content": "<p><span id=\"ctl00_MainContent_DetailedOutput\">One or more of your parents (either biological or adoptive) were heroes of the Age of Ashes Adventure Path. Others tend to treat you with a bit more respect, or perhaps fear your connections to people of great power.<br /></span></p>\n<p><span id=\"ctl00_MainContent_DetailedOutput\">Choose two ability boosts. One must be to <strong>Dexterity</strong> or <strong>Charisma</strong>, and one is a free ability boost.<br /></span></p>\n<p><span id=\"ctl00_MainContent_DetailedOutput\">You're trained in the </span><u>Intimidation</u> skill, and the <u>Genealogy Lore</u> skill. You gain the @Compendium[pf2e.feats-srd.Group Coercion]{Group Coercion} skill feat.</p>",
    "flags": {},
    "name": "Legendary Parents",
    "permission": {
        "default": 0
    }
}
