{
    "_id": "XC86jXYUicUqkoQY",
    "content": "<p>Exposure to the corrupting influence of the Mana Wastes' strange energies has warped your inner essence, resulting in unpredictable interactions with magic items and more than a little know-how about surviving under bizarre and adverse natural conditions.</p>\n<p>Choose two ability boosts. One must be to <strong>Constitution</strong>  or <strong>Intelligence</strong>, and one is a free ability boost.</p>\n<p>You're trained in the Arcana skill and the Wilderness Lore skill. You gain the @Compendium[pf2e.feats-srd.Trick Magic Item]{Trick Magic Item} skill feat.</p>",
    "flags": {},
    "name": "Mana Wastes Refugee",
    "permission": {
        "default": 0
    }
}
