{
    "_id": "JNCNUsussLP4NZfC",
    "content": "<p><strong>[Rare]</strong></p>\n<p><span id=\"docs-internal-guid-0999dca0-7fff-47ae-89ab-4e9cd210adab\">You died and miraculously returned with knowledge of the realms beyond death and a stronger link to life. Some dead and undead souls might feel a strange, instinctual kinship with you. </span></p>\n<p><span id=\"docs-internal-guid-0999dca0-7fff-47ae-89ab-4e9cd210adab\">Choose two ability boosts. One must be to <strong>Constitution</strong> or <strong>Wisdom</strong>, and one is a free ability boost. </span></p>\n<p><span id=\"docs-internal-guid-0999dca0-7fff-47ae-89ab-4e9cd210adab\">You gain the @Compendium[pf2e.feats-srd.Diehard]{Diehard} feat and the @Compendium[pf2e.feats-srd.Additional Lore]{Additional Lore} feat for Boneyard Lore.</span></p>",
    "flags": {},
    "name": "Returned",
    "permission": {
        "default": 0
    }
}
