{
    "_id": "0EIhRniun8jfdPeN",
    "content": "<p>You grew up among the southern houses of Brevoy in old Rostland. You're accustomed to arguing from a position of underappreciated worth.</p>\n<p>Choose two ability boosts. One must be to <strong>Constitution</strong> or <strong>Charisma</strong>, and one is a free ability boost.</p>\n<p>You're trained in the Diplomacy skill and the Politics Lore skill. You gain the @Compendium[pf2e.feats-srd.Group Impression]{Group Impression} skill feat.</p>",
    "flags": {},
    "name": "Rostland Partisan",
    "permission": {
        "default": 0
    }
}
