{
    "_id": "DboMU7sSqrkSsZgI",
    "content": "<p><span id=\"docs-internal-guid-0c0ad3bb-7fff-0b8b-b37c-834cafe002fc\"> You've made a living sorting through the things society throws away. You might have scavenged simply to survive, or plied a trade as a ragpicker, dung carter, or the like. While you've left that life behind, you still keep one eye on the ground out of habit. </span></p>\n<p><span id=\"docs-internal-guid-0c0ad3bb-7fff-0b8b-b37c-834cafe002fc\">Choose two ability boosts. One must be to <strong>Intelligence</strong> or <strong>Wisdom</strong>, and one is a free ability boost. </span></p>\n<p><span id=\"docs-internal-guid-0c0ad3bb-7fff-0b8b-b37c-834cafe002fc\">You're trained in the Survival skill and the Lore skill for the settlement you grew up scavenging in. You gain the @Compendium[pf2e.feats-srd.Forager]{Forager} skill feat.</span></p>",
    "flags": {},
    "name": "Scavenger",
    "permission": {
        "default": 0
    }
}
