{
    "_id": "uDcJtxd6j47m1knn",
    "content": "<p><span id=\"docs-internal-guid-f1ade9ef-7fff-765a-3b35-50cfaef1d19f\">Reviled but required, you were sent when taxes were due. Performing your job might have required travel and persuasion, or perhaps you were responsible for collecting taxes on trade. Either way, it sometimes meant dirty hands, and adventuring seemed the next logical step to you. </span></p>\n<p><span id=\"docs-internal-guid-f1ade9ef-7fff-765a-3b35-50cfaef1d19f\">Choose two ability boosts. One must be to <strong>Strength</strong> or <strong>Charisma</strong>, and one is a free ability boost. </span></p>\n<p><span id=\"docs-internal-guid-f1ade9ef-7fff-765a-3b35-50cfaef1d19f\">You're trained in the Intimidation skill and the Lore skill for the settlement that employed you. You gain the @Compendium[pf2e.feats-srd.Quick Coercion]{Quick Coercion} skill feat. </span></p>",
    "flags": {},
    "name": "Tax Collector",
    "permission": {
        "default": 0
    }
}
