{
    "_id": "vBj8pruBbClwdEZG",
    "content": "<p>You come from ancient Thassilon, one of the citizens that appeared out of time alongside the city of Xin-Edasseril. You know many things that have been long forgotten... along with many things that are no longer correct.</p>\n<p>Choose two ability boosts. One must be to <strong>Constitution</strong>  or <strong>Intelligence</strong>, and one is a free ability boost.</p>\n<p>You're trained in the Arcana skill and the Thassilon Lore skill. You gain the @Compendium[pf2e.feats-srd.Dubious Knowledge]{Dubious Knowledge} skill feat.</p>",
    "flags": {},
    "name": "Thassilonian Traveler",
    "permission": {
        "default": 0
    }
}
