{
    "_id": "47FmnpSOE96SJ8H4",
    "data": {
        "brokenThreshold": {
            "value": 0
        },
        "bulkCapacity": {
            "value": ""
        },
        "collapsed": {
            "value": false
        },
        "containerId": {
            "value": ""
        },
        "description": {
            "chat": "",
            "unidentified": "",
            "value": "<p>This aeon stone allows you to cast 2nd-level @Compendium[pf2e.spells-srd.Augury]{Augury} as a divine innate spell once per day.</p>\n<p>The resonant power causes the augury spell from the aeon stone to always succeed at the DC 6 flat check to give an answer other than \"nothing.\"</p>"
        },
        "equipped": {
            "value": false
        },
        "equippedBulk": {
            "value": ""
        },
        "hardness": {
            "value": 0
        },
        "hp": {
            "value": 0
        },
        "identified": {
            "value": true
        },
        "invested": {
            "value": false
        },
        "level": {
            "value": "5"
        },
        "maxHp": {
            "value": 0
        },
        "negateBulk": {
            "value": "0"
        },
        "preciousMaterial": {
            "value": ""
        },
        "preciousMaterialGrade": {
            "value": ""
        },
        "price": {
            "value": "300 gp"
        },
        "quantity": {
            "value": "1"
        },
        "rarity": {
            "value": "common"
        },
        "rules": [],
        "source": {
            "value": ""
        },
        "stackGroup": {
            "value": ""
        },
        "traits": {
            "custom": "",
            "rarity": {
                "value": "uncommon"
            },
            "usage": {
                "value": "worn"
            },
            "value": [
                "invested",
                "magical",
                "transmutation"
            ]
        },
        "usage": {
            "value": "held-in-one-hand"
        },
        "weight": {
            "value": "-"
        }
    },
    "effects": [],
    "flags": {
        "core": {
            "sourceId": "Item.777CCn5LlTkuJ6Z0"
        }
    },
    "img": "systems/pf2e/icons/equipment/worn-items/other-worn-items/aeon-stone-agate-ellipsoid.jpg",
    "name": "Aeon Stone (Agate Ellipsoid)",
    "permission": {
        "default": 0
    },
    "type": "equipment"
}
