{
    "_id": "r0ifJfoz8aqf0mwk",
    "data": {
        "armor": {
            "label": "AC Bonus",
            "type": "Number",
            "value": 4
        },
        "armorType": {
            "label": "Armor Category",
            "type": "String",
            "value": "medium"
        },
        "brokenThreshold": {
            "value": null
        },
        "bulkCapacity": {
            "value": ""
        },
        "check": {
            "label": "Check Penalty",
            "type": "String",
            "value": "-2"
        },
        "collapsed": {
            "value": false
        },
        "containerId": {
            "value": ""
        },
        "description": {
            "chat": "",
            "label": "Description",
            "type": "String",
            "unidentified": "",
            "value": "<p>Though referred to as a breastplate, this type of armor consists of several pieces of plate or half‑plate armor (page 276) that protect the torso, chest, neck, and sometimes the hips and lower legs. It strategically grants some of the protection of plate while allowing greater flexibility and speed.</p>"
        },
        "dex": {
            "label": "Dex Modifier Cap",
            "type": "String",
            "value": "1"
        },
        "equipped": {
            "label": "Equipped",
            "type": "Boolean",
            "value": false
        },
        "equippedBulk": {
            "value": "2"
        },
        "group": {
            "label": "Group",
            "type": "String",
            "value": "plate"
        },
        "hardness": {
            "value": null
        },
        "hp": {
            "value": null
        },
        "identified": {
            "value": true
        },
        "invested": {
            "value": false
        },
        "level": {
            "label": "Item Level",
            "type": "Number",
            "value": 0
        },
        "maxHp": {
            "value": null
        },
        "negateBulk": {
            "value": "0"
        },
        "potency": {
            "label": "Armor Potency",
            "type": "String"
        },
        "potencyRune": {
            "value": ""
        },
        "preciousMaterial": {
            "value": ""
        },
        "preciousMaterialGrade": {
            "value": ""
        },
        "price": {
            "label": "Price",
            "type": "String",
            "value": "8 gp"
        },
        "property1": {
            "critDamage": "",
            "critDamageType": "",
            "critDice": 0,
            "critDie": "",
            "damageType": "",
            "dice": 0,
            "die": "",
            "label": "Property Rune 1",
            "type": "Number",
            "value": ""
        },
        "property2": {
            "critDamage": "",
            "critDamageType": "",
            "critDice": 0,
            "critDie": "",
            "damageType": "",
            "dice": 0,
            "die": "",
            "label": "Property Rune 2",
            "type": "Number",
            "value": ""
        },
        "property3": {
            "critDamage": "",
            "critDamageType": "",
            "critDice": 0,
            "critDie": "",
            "damageType": "",
            "dice": 0,
            "die": "",
            "label": "Property Rune 3",
            "type": "Number",
            "value": ""
        },
        "propertyRune1": {
            "value": ""
        },
        "propertyRune2": {
            "value": ""
        },
        "propertyRune3": {
            "value": ""
        },
        "propertyRune4": {
            "value": ""
        },
        "quantity": {
            "label": "Quantity",
            "type": "Number",
            "value": 1
        },
        "rarity": {
            "value": "common"
        },
        "resiliencyRune": {
            "value": ""
        },
        "resilient": {
            "label": "Resilient",
            "type": "String"
        },
        "source": {
            "label": "Source",
            "type": "String",
            "value": ""
        },
        "speed": {
            "label": "Speed Penalty",
            "type": "String",
            "value": "-5 ft"
        },
        "stackGroup": {
            "value": ""
        },
        "strength": {
            "label": "Required Strength",
            "type": "String",
            "value": "16"
        },
        "traits": {
            "label": "Traits",
            "rarity": {
                "value": "common"
            },
            "type": "String",
            "value": ""
        },
        "usage": {
            "value": "held-in-one-hand"
        },
        "weight": {
            "label": "Bulk",
            "type": "Number",
            "value": "3"
        }
    },
    "flags": {},
    "img": "systems/pf2e/icons/equipment/armor/breastplate.jpg",
    "name": "Breastplate",
    "permission": {
        "default": 0
    },
    "type": "armor"
}
