{
    "_id": "SMBPvsZH7yAsGSQa",
    "data": {
        "brokenThreshold": {
            "value": 0
        },
        "bulkCapacity": {
            "value": ""
        },
        "collapsed": {
            "value": false
        },
        "containerId": {
            "value": ""
        },
        "description": {
            "chat": "",
            "unidentified": "",
            "value": "<p>Pathfinder Society researchers recently created elemental wayfinders with the assistance of the Society's elemental allies. In addition to the effects of a @Compendium[pf2e.equipment-srd.Wayfinder]{Wayfinder}, these wayfinders each grant the ability to cast a particular elemental spell once per day, and can assist Pathfinders in exploring areas associated with their element. Each has the trait associated with its element.</p>\n<hr />\n<p><strong>Activate</strong> <strong></strong> <span style=\"font-family: 'Pathfinder2eActions'; font-size: 1.8em; display: inline;\">2</span>  command;</p>\n<p><strong>Frequency</strong> once per day;</p>\n<p><strong>Effect</strong> The wayfinder can cast 4th-level @Compendium[pf2e.spells-srd.Lightning Bolt]{Lightning Bolt}.</p>\n<hr />\n<p>Additionally, you can cast @Compendium[pf2e.spells-srd.Feather Fall]{Feather Fall} as a primal innate spell once every 10 minutes.</p>"
        },
        "equipped": {
            "value": false
        },
        "equippedBulk": {
            "value": ""
        },
        "hardness": {
            "value": 0
        },
        "hp": {
            "value": 0
        },
        "identified": {
            "value": true
        },
        "invested": {
            "value": false
        },
        "level": {
            "value": "9"
        },
        "maxHp": {
            "value": 0
        },
        "negateBulk": {
            "value": "0"
        },
        "preciousMaterial": {
            "value": ""
        },
        "preciousMaterialGrade": {
            "value": ""
        },
        "price": {
            "value": "650 gp"
        },
        "quantity": {
            "value": "1"
        },
        "rarity": {
            "value": "common"
        },
        "rules": [],
        "source": {
            "value": ""
        },
        "stackGroup": {
            "value": ""
        },
        "traits": {
            "custom": "",
            "rarity": {
                "value": "uncommon"
            },
            "usage": {
                "value": "worn"
            },
            "value": [
                "evocation",
                "invested",
                "magical"
            ]
        },
        "usage": {
            "value": "held-in-one-hand"
        },
        "weight": {
            "value": "-"
        }
    },
    "effects": [],
    "flags": {
        "core": {
            "sourceId": "Item.5iQJ4Cn5f8R4Enya"
        }
    },
    "img": "systems/pf2e/icons/equipment/worn-items/other-worn-items/elemental-wayfinder-air.jpg",
    "name": "Elemental Wayfinder (Air)",
    "permission": {
        "default": 0
    },
    "type": "equipment"
}
