{
    "_id": "9Y86NM6nt2WtYBOy",
    "data": {
        "brokenThreshold": {
            "value": 0
        },
        "bulkCapacity": {
            "value": ""
        },
        "collapsed": {
            "value": false
        },
        "containerId": {
            "value": ""
        },
        "description": {
            "chat": "",
            "unidentified": "",
            "value": "<p>Before activation, this item appears to be nothing more than a simple rolled-up tent, barely large enough to fit four Medium creatures. Despite attempts to clean it, the tent is perpetually smudged with dirt in various places.</p>\n<p><strong>Activate</strong> (10 minutes) Interact</p>\n<p><strong>Frequency</strong> once per day</p>\n<p><strong>Effect</strong> The rolled-up tent expands into a spacious yurt complete with a fire pit, 10 bedrolls, various cooking utensils, and basic food and water.</p>\n<p>The yurt can house and feed you and up to nine other Medium creatures that eat roughly as much as a human does; they need not attempt a Survival check to Subsist when you use the yurt. Fires and light inside the yurt do not extend illumination into the area surrounding the yurt, making it harder to spot from a distance.</p>\n<p>A large loop of red cloth hangs from one wall. If this loop is pulled, which takes an Interact action, the entire yurt immediately folds back up into its deactivated form, ready for further travel.</p>"
        },
        "equipped": {
            "value": false
        },
        "equippedBulk": {
            "value": ""
        },
        "hardness": {
            "value": 0
        },
        "hp": {
            "value": 0
        },
        "identified": {
            "value": true
        },
        "invested": {
            "value": false
        },
        "level": {
            "value": "10"
        },
        "maxHp": {
            "value": 0
        },
        "negateBulk": {
            "value": ""
        },
        "preciousMaterial": {
            "value": ""
        },
        "preciousMaterialGrade": {
            "value": ""
        },
        "price": {
            "value": "880 gp"
        },
        "quantity": {
            "value": "1"
        },
        "rarity": {
            "value": "common"
        },
        "rules": [],
        "source": {
            "value": ""
        },
        "stackGroup": {
            "value": ""
        },
        "traits": {
            "custom": "",
            "rarity": {
                "value": "common"
            },
            "usage": {
                "value": "held-in-one-hand"
            },
            "value": [
                "conjuration",
                "magical",
                "structure"
            ]
        },
        "usage": {
            "value": "held-in-one-hand"
        },
        "weight": {
            "value": "1"
        }
    },
    "effects": [],
    "flags": {},
    "img": "systems/pf2e/icons/equipment/structures/explorers-yurt.jpg",
    "name": "Explorer's Yurt",
    "permission": {
        "default": 0
    },
    "type": "equipment"
}
