{
    "_id": "IAeGh5qvu7ob4yad",
    "data": {
        "activation": {
            "condition": "",
            "cost": 0,
            "type": ""
        },
        "autoDestroy": {
            "_deprecated": true,
            "value": true
        },
        "autoUse": {
            "_deprecated": true,
            "value": true
        },
        "brokenThreshold": {
            "value": 0
        },
        "bulkCapacity": {
            "value": ""
        },
        "charges": {
            "_deprecated": true,
            "max": "1",
            "value": "1"
        },
        "collapsed": {
            "value": false
        },
        "consumableType": {
            "value": "potion"
        },
        "consume": {
            "_deprecated": true,
            "value": null
        },
        "containerId": {
            "value": ""
        },
        "description": {
            "chat": "",
            "unidentified": "",
            "value": "<p>This small grappling hook is designed to be tied to a rope and fired from a bow. When fired, it has half the normal range increment for the weapon.</p>"
        },
        "duration": {
            "units": "",
            "value": null
        },
        "equipped": {
            "value": false
        },
        "equippedBulk": {
            "value": ""
        },
        "hardness": {
            "value": 0
        },
        "hp": {
            "value": 0
        },
        "identified": {
            "value": true
        },
        "invested": {
            "value": false
        },
        "level": {
            "value": "0"
        },
        "maxHp": {
            "value": 0
        },
        "negateBulk": {
            "value": "0"
        },
        "preciousMaterial": {
            "value": ""
        },
        "preciousMaterialGrade": {
            "value": ""
        },
        "price": {
            "value": "2 sp"
        },
        "quantity": {
            "value": "1"
        },
        "range": {
            "long": null,
            "units": "",
            "value": null
        },
        "rarity": {
            "value": "common"
        },
        "rules": [],
        "source": {
            "value": ""
        },
        "stackGroup": {
            "value": ""
        },
        "target": {
            "type": "",
            "units": "",
            "value": null
        },
        "traits": {
            "rarity": {
                "value": "uncommon"
            },
            "usage": {
                "value": "held-in-one-hand"
            },
            "value": []
        },
        "usage": {
            "value": "held-in-one-hand"
        },
        "uses": {
            "autoDestroy": true,
            "autoUse": true,
            "max": 0,
            "per": null,
            "value": 0
        },
        "weight": {
            "value": "L"
        }
    },
    "effects": [],
    "flags": {
        "core": {
            "sourceId": "Item.AlCQGKzafh52WmXW"
        }
    },
    "img": "systems/pf2e/icons/equipment/adventuring-gear/grappling-arrow.jpg",
    "name": "Grappling Arrow",
    "permission": {
        "default": 0
    },
    "type": "consumable"
}
