{
    "_id": "YmTGzsenhogSNDXK",
    "data": {
        "MAP": {
            "value": ""
        },
        "ability": {
            "value": ""
        },
        "bonus": {
            "value": 0
        },
        "bonusDamage": {
            "value": 0
        },
        "brokenThreshold": {
            "value": 0
        },
        "bulkCapacity": {
            "value": ""
        },
        "collapsed": {
            "value": false
        },
        "containerId": {
            "value": ""
        },
        "damage": {
            "damageType": "slashing",
            "dice": 1,
            "die": "d6",
            "value": ""
        },
        "description": {
            "chat": "",
            "unidentified": "",
            "value": "<p>This lustrous, rat-shaped pyrite statuette is 1 inch tall. When activated, the statuette transforms into a flesh-and-blood giant rat. You can use the following action when you hold the <em>pyrite rat</em>. You can use this action only once per day, and the rat remains transformed for 1 hour.</p>\n<p><strong>Transform Statue</strong>&nbsp;<span style=\"font-family: 'Pathfinder2eActions'; font-size: 1.8em; display: inline;\">2</span>&nbsp;(concentrate, manipulate) <strong>Effect</strong> You place the statue on solid ground and speak the rat’s secret name, causing the statuette to transform into a living giant rat (page 75). In creature form, the giant rat acts on your turn. It gets 2 actions and can’t use reactions. You have to spend an action each turn to tell it what to do; otherwise, it tries to run away from danger or cowers where it is. If the rat is slain while in animal form, it reverts to its statue shape and can’t be transformed again until 1 week has passed. If the figurine is destroyed while in its statue form, it’s shattered and its magical properties are lost forever.</p>"
        },
        "equipped": {
            "value": false
        },
        "equippedBulk": {
            "value": ""
        },
        "group": {
            "value": ""
        },
        "hands": {
            "value": ""
        },
        "hardness": {
            "value": 0
        },
        "hp": {
            "value": 0
        },
        "identified": {
            "value": true
        },
        "invested": {
            "value": false
        },
        "level": {
            "value": "2"
        },
        "maxHp": {
            "value": 0
        },
        "negateBulk": {
            "value": "0"
        },
        "potencyRune": {
            "value": ""
        },
        "preciousMaterial": {
            "value": ""
        },
        "preciousMaterialGrade": {
            "value": ""
        },
        "price": {
            "value": "32 gp"
        },
        "property1": {
            "critDamage": "",
            "critDamageType": "",
            "critDice": 0,
            "critDie": "",
            "damageType": "",
            "dice": 0,
            "die": "",
            "value": ""
        },
        "property2": {
            "critDamage": "",
            "critDamageType": "",
            "critDice": 0,
            "critDie": "",
            "damageType": "",
            "dice": 0,
            "die": "",
            "value": ""
        },
        "property3": {
            "critDamage": "",
            "critDamageType": "",
            "critDice": 0,
            "critDie": "",
            "damageType": "",
            "dice": 0,
            "die": "",
            "value": ""
        },
        "propertyRune1": {
            "value": ""
        },
        "propertyRune2": {
            "value": ""
        },
        "propertyRune3": {
            "value": ""
        },
        "propertyRune4": {
            "value": ""
        },
        "quantity": {
            "value": "1"
        },
        "range": {
            "value": ""
        },
        "rarity": {
            "value": "common"
        },
        "reload": {
            "value": ""
        },
        "rules": [],
        "source": {
            "value": ""
        },
        "splashDamage": {
            "value": 0
        },
        "stackGroup": {
            "value": ""
        },
        "strikingRune": {
            "value": ""
        },
        "traits": {
            "custom": "",
            "rarity": {
                "value": "common"
            },
            "usage": {
                "value": "held-in-one-hand"
            },
            "value": [
                "conjuration",
                "magical"
            ]
        },
        "usage": {
            "value": "held-in-one-hand"
        },
        "weaponType": {
            "value": ""
        },
        "weight": {
            "value": "-"
        }
    },
    "effects": [],
    "flags": {
        "core": {
            "sourceId": "Item.KlBxjbDNgsiOLgZp"
        },
        "exportSource": {
            "coreVersion": "0.7.8",
            "system": "pf2e",
            "systemVersion": "1.10.22.2523",
            "world": "otari"
        }
    },
    "img": "systems/pf2e/icons/equipment/held-items/wondrous-figurine-golden-lion.jpg",
    "name": "Pyrite Rat",
    "permission": {
        "default": 0
    },
    "type": "equipment"
}
