{
    "_id": "9XrsaIc80eXhKaoM",
    "data": {
        "brokenThreshold": {
            "value": 0
        },
        "bulkCapacity": {
            "value": ""
        },
        "collapsed": {
            "value": false
        },
        "containerId": {
            "value": ""
        },
        "description": {
            "chat": "",
            "unidentified": "",
            "value": "<p>This silk rope measures 50 feet long and is capable of holding up to 3,000 pounds. If the rope is ever cut, only the longest remaining portion retains its magic.</p>\n<p><strong>Activate</strong> <span style=\"font-family: 'Pathfinder2eActions'; font-size: 1.8em; display: inline;\">1</span> Interact;</p>\n<p><strong>Frequency</strong> once per hour;</p>\n<p><strong>Effect</strong> You hold one end of the rope and point to a destination. The rope animates for 1 minute, moving 10 feet per round until it reaches the destination or runs out of length. The rope can move across any non-damaging horizontal or vertical surface, but it can't extend upward without a surface to support it. At any point while the rope is animated, you can use an Interact action to wiggle the rope, giving it one of the following commands: stop in place, fasten securely to the nearest available object, detach from an object, or knot or unknot itself.</p>"
        },
        "equipped": {
            "value": false
        },
        "equippedBulk": {
            "value": ""
        },
        "hardness": {
            "value": 0
        },
        "hp": {
            "value": 0
        },
        "identified": {
            "value": true
        },
        "invested": {
            "value": false
        },
        "level": {
            "value": "5"
        },
        "maxHp": {
            "value": 0
        },
        "negateBulk": {
            "value": "0"
        },
        "preciousMaterial": {
            "value": ""
        },
        "preciousMaterialGrade": {
            "value": ""
        },
        "price": {
            "value": "125 gp"
        },
        "quantity": {
            "value": "1"
        },
        "rarity": {
            "value": "common"
        },
        "source": {
            "value": ""
        },
        "stackGroup": {
            "value": ""
        },
        "traits": {
            "custom": "",
            "rarity": {
                "value": "common"
            },
            "usage": {
                "value": "held-in-one-hand"
            },
            "value": [
                "magical",
                "transmutation"
            ]
        },
        "usage": {
            "value": "held-in-one-hand"
        },
        "weight": {
            "value": "L"
        }
    },
    "flags": {},
    "img": "systems/pf2e/icons/equipment/held-items/rope-of-climbing.jpg",
    "name": "Rope of Climbing (Moderate)",
    "permission": {
        "default": 0
    },
    "type": "equipment"
}
