{
    "_id": "g9pOZsJykSihdyrL",
    "data": {
        "brokenThreshold": {
            "value": 0
        },
        "bulkCapacity": {
            "value": "1"
        },
        "collapsed": {
            "value": false
        },
        "containerId": {
            "value": ""
        },
        "description": {
            "chat": "",
            "unidentified": "",
            "value": "<p>Vigilant Seal members use these containers when transporting samples and relics.</p>\n<p>The containers are soundproof, airtight, and studded with lead sheets, mistletoe, and other materials that block magical auras. Up to 1 Bulk of objects can be placed inside a sealing chest; the magic auras and curses of any objects placed within the chest cannot extend beyond the box unless they are of a greater level than the chest. Artifacts and similarly powerful items are unaffected regardless of level. Many cursed items prevent their bearer from removing them, but a successful remove curse gives enough time to stash the item in the chest.</p>"
        },
        "equipped": {
            "value": false
        },
        "equippedBulk": {
            "value": ""
        },
        "hardness": {
            "value": 0
        },
        "hp": {
            "value": 0
        },
        "identified": {
            "value": true
        },
        "invested": {
            "value": false
        },
        "level": {
            "value": "4"
        },
        "maxHp": {
            "value": 0
        },
        "negateBulk": {
            "value": "0"
        },
        "preciousMaterial": {
            "value": ""
        },
        "preciousMaterialGrade": {
            "value": ""
        },
        "price": {
            "value": "75 gp"
        },
        "quantity": {
            "value": "1"
        },
        "rarity": {
            "value": "common"
        },
        "rules": [],
        "source": {
            "value": ""
        },
        "stackGroup": {
            "value": ""
        },
        "traits": {
            "custom": "",
            "rarity": {
                "value": "uncommon"
            },
            "usage": {
                "value": "held-in-two-hands"
            },
            "value": [
                "abjuration",
                "magical"
            ]
        },
        "usage": {
            "value": "held-in-one-hand"
        },
        "weight": {
            "value": "L"
        }
    },
    "effects": [],
    "flags": {
        "core": {
            "sourceId": "Item.8GRtBdcDNkqnhzaA"
        }
    },
    "img": "systems/pf2e/icons/equipment/held-items/sealing-chest.jpg",
    "name": "Sealing Chest (Lesser)",
    "permission": {
        "default": 0
    },
    "type": "equipment"
}
