{
    "_id": "z6eQdPTgSxTLR1Qr",
    "data": {
        "brokenThreshold": {
            "value": 0
        },
        "bulkCapacity": {
            "value": ""
        },
        "collapsed": {
            "value": false
        },
        "containerId": {
            "value": ""
        },
        "description": {
            "chat": "",
            "unidentified": "",
            "value": "<p>A <em>shining wayfinder</em> is a polished silver compass blessed by the power of benevolent deities. It has the usual functions of a <em>wayfinder</em>, except instead of an activation to cast <em>light</em>, the shining wayfinder has the following two activations.</p>\n<p><strong>Activate</strong> <span style=\"font-family: 'Pathfinder2eActions'; font-size: 1.8em; display: inline;\">D</span> command, Interact; <strong>Effect</strong> You hold the <em>wayfinder</em> and ask for guidance. The wayfinder casts guidance on you.</p>\n<p><strong>Activate</strong> <span style=\"font-family: 'Pathfinder2eActions'; font-size: 1.8em; display: inline;\">D</span> command, Interact; <strong>Frequency</strong> once per day; <strong>Effect</strong> You call upon the wayfinder's divine blessings for yourself and your allies. The wayfinder casts bless, with an emanation centered on itself. Once per turn, you can use a single action, which has the concentrate trait, to increase the emanation's radius by 5 feet.</p>"
        },
        "equipped": {
            "value": false
        },
        "equippedBulk": {
            "value": ""
        },
        "hardness": {
            "value": 0
        },
        "hp": {
            "value": 0
        },
        "identified": {
            "value": true
        },
        "invested": {
            "value": false
        },
        "level": {
            "value": "4"
        },
        "maxHp": {
            "value": 0
        },
        "negateBulk": {
            "value": ""
        },
        "preciousMaterial": {
            "value": ""
        },
        "preciousMaterialGrade": {
            "value": ""
        },
        "price": {
            "value": "100 gp"
        },
        "quantity": {
            "value": "1"
        },
        "rarity": {
            "value": "common"
        },
        "rules": [],
        "source": {
            "value": ""
        },
        "stackGroup": {
            "value": ""
        },
        "traits": {
            "custom": "",
            "rarity": {
                "value": "uncommon"
            },
            "usage": {
                "value": "worn"
            },
            "value": [
                "abjuration",
                "divination",
                "evocation",
                "invested",
                "magical"
            ]
        },
        "usage": {
            "value": "held-in-one-hand"
        },
        "weight": {
            "value": "-"
        }
    },
    "effects": [],
    "flags": {},
    "img": "systems/pf2e/icons/equipment/worn-items/other-worn-items/shining-wayfinder.jpg",
    "name": "Shining Wayfinder",
    "permission": {
        "default": 0
    },
    "type": "equipment"
}
