{
    "_id": "fprUZviW8khm2BLo",
    "data": {
        "brokenThreshold": {
            "value": 0
        },
        "bulkCapacity": {
            "value": ""
        },
        "collapsed": {
            "value": false
        },
        "containerId": {
            "value": ""
        },
        "description": {
            "chat": "",
            "unidentified": "",
            "value": "<p><span>A grinning skull tops the bow of this macabre key. This key can be used in place of thieves' tools when attempting to Pick a Lock, and it grants a +1 item bonus to the Thievery check. If the <em>skeleton key</em> becomes broken due to a critical failure on the check, it works as normal thieves' tools and loses its benefits until repaired.<br /></span></p>\n<p><span><strong>Activate</strong> <span style=\"font-family: 'Pathfinder2eActions'; font-size: 1.8em; display: inline;\">F</span> Interact; <strong>Frequency</strong> once per day; <strong>Trigger</strong> You attempt to Pick a Lock but haven't rolled yet; <strong>Effect</strong> The key casts @Compendium[pf2e.spells-srd.Knock]{Knock} on the lock you're trying to pick.</span></p>"
        },
        "equipped": {
            "value": false
        },
        "equippedBulk": {
            "value": ""
        },
        "hardness": {
            "value": 0
        },
        "hp": {
            "value": 0
        },
        "identified": {
            "value": true
        },
        "invested": {
            "value": false
        },
        "level": {
            "value": "5"
        },
        "maxHp": {
            "value": 0
        },
        "negateBulk": {
            "value": "0"
        },
        "preciousMaterial": {
            "value": ""
        },
        "preciousMaterialGrade": {
            "value": ""
        },
        "price": {
            "value": "125 gp"
        },
        "quantity": {
            "value": "1"
        },
        "rarity": {
            "value": "common"
        },
        "source": {
            "value": ""
        },
        "stackGroup": {
            "value": ""
        },
        "traits": {
            "custom": "",
            "rarity": {
                "value": "common"
            },
            "usage": {
                "value": "held-in-one-hand"
            },
            "value": [
                "magical",
                "transmutation"
            ]
        },
        "usage": {
            "value": "held-in-one-hand"
        },
        "weight": {
            "value": "-"
        }
    },
    "flags": {},
    "img": "systems/pf2e/icons/equipment/held-items/skeleton-key.jpg",
    "name": "Skeleton Key",
    "permission": {
        "default": 0
    },
    "type": "equipment"
}
