{
    "_id": "sjxhPujyv6rJJRWO",
    "data": {
        "activation": {
            "condition": "",
            "cost": 0,
            "type": ""
        },
        "autoDestroy": {
            "_deprecated": true,
            "value": true
        },
        "autoUse": {
            "_deprecated": true,
            "value": true
        },
        "brokenThreshold": {
            "value": 0
        },
        "bulkCapacity": {
            "value": ""
        },
        "charges": {
            "_deprecated": true,
            "max": "1",
            "value": "1"
        },
        "collapsed": {
            "value": false
        },
        "consumableType": {
            "value": "talasman"
        },
        "consume": {
            "_deprecated": true,
            "value": ""
        },
        "containerId": {
            "value": ""
        },
        "description": {
            "chat": "",
            "unidentified": "",
            "value": "<p><span>When you activate this resin-strengthened viper skull, you make an Attack of Opportunity against the triggering creature.<br /></span></p>\n<p><span>If you have Attack of Opportunity, you can activate the <em>viper's fang</em> as a free action.<br /></span></p>\n<p><span><strong>Activate</strong> <span style=\"font-family: 'Pathfinder2eActions'; font-size: 1.8em; display: inline;\">R</span> Envision; <strong>Trigger</strong> A creature within your reach uses a manipulate or move action, makes a ranged attack, or leaves a square during a moving action it's using; <strong>Requirements</strong> You are a master with the affixed weapon</span></p>"
        },
        "duration": {
            "units": "",
            "value": null
        },
        "equipped": {
            "value": false
        },
        "equippedBulk": {
            "value": ""
        },
        "hardness": {
            "value": 0
        },
        "hp": {
            "value": 0
        },
        "identified": {
            "value": true
        },
        "invested": {
            "value": false
        },
        "level": {
            "value": "14"
        },
        "maxHp": {
            "value": 0
        },
        "negateBulk": {
            "value": "0"
        },
        "preciousMaterial": {
            "value": ""
        },
        "preciousMaterialGrade": {
            "value": ""
        },
        "price": {
            "value": "850 gp"
        },
        "quantity": {
            "value": "1"
        },
        "range": {
            "long": null,
            "units": "",
            "value": null
        },
        "rarity": {
            "value": "common"
        },
        "source": {
            "value": ""
        },
        "stackGroup": {
            "value": ""
        },
        "target": {
            "type": "",
            "units": "",
            "value": null
        },
        "traits": {
            "custom": "",
            "rarity": {
                "value": "common"
            },
            "usage": {
                "value": "affixed-to-weapon"
            },
            "value": [
                "consumable",
                "evocation",
                "magical",
                "talisman"
            ]
        },
        "usage": {
            "value": "held-in-one-hand"
        },
        "uses": {
            "autoDestroy": true,
            "autoUse": true,
            "max": 0,
            "per": null,
            "value": 0
        },
        "weight": {
            "value": "-"
        }
    },
    "flags": {},
    "img": "systems/pf2e/icons/equipment/consumables/talismans/vipers-fang.jpg",
    "name": "Viper's Fang",
    "permission": {
        "default": 0
    },
    "type": "consumable"
}
