{
    "_id": "tDEi3zLVpxwA74qz",
    "data": {
        "brokenThreshold": {
            "value": 0
        },
        "bulkCapacity": {
            "value": ""
        },
        "collapsed": {
            "value": false
        },
        "containerId": {
            "value": ""
        },
        "description": {
            "chat": "",
            "unidentified": "",
            "value": "<p><span>This wand increases a spell's duration. Yellow embers spiral over its surface until the spell ends.<br /></span></p>\n<p><span><strong>Activate</strong> Cast a Spell; <strong>Frequency</strong> once per day, plus overcharge; the activation takes <span style=\"font-family: 'Pathfinder2eActions'; font-size: 1.8em; display: inline;\">D</span> if the spell normally takes <span style=\"font-family: 'Pathfinder2eActions'; font-size: 1.8em; display: inline;\">A</span> to cast, or <span style=\"font-family: 'Pathfinder2eActions'; font-size: 1.8em; display: inline;\">T</span> if the spell normally takes <span style=\"font-family: 'Pathfinder2eActions'; font-size: 1.8em; display: inline;\">D</span>; <strong>Effect</strong> You Cast the Spell, and its duration is increased by half.<br /></span></p>\n<p><span><strong>Craft Requirements</strong> Supply a casting of a spell of the appropriate level. The spell must have a casting time of <span style=\"font-family: 'Pathfinder2eActions'; font-size: 1.8em; display: inline;\">A</span> or <span style=\"font-family: 'Pathfinder2eActions'; font-size: 1.8em; display: inline;\">D</span> and a duration no less than 10 minutes and no greater than 1 hour.</span></p>"
        },
        "equipped": {
            "value": false
        },
        "equippedBulk": {
            "value": ""
        },
        "hardness": {
            "value": 0
        },
        "hp": {
            "value": 0
        },
        "identified": {
            "value": true
        },
        "invested": {
            "value": false
        },
        "level": {
            "value": "13"
        },
        "maxHp": {
            "value": 0
        },
        "negateBulk": {
            "value": "0"
        },
        "preciousMaterial": {
            "value": ""
        },
        "preciousMaterialGrade": {
            "value": ""
        },
        "price": {
            "value": "3,000 gp"
        },
        "quantity": {
            "value": "1"
        },
        "rarity": {
            "value": "common"
        },
        "source": {
            "value": ""
        },
        "stackGroup": {
            "value": ""
        },
        "traits": {
            "custom": "",
            "rarity": {
                "value": "common"
            },
            "usage": {
                "value": "held-in-one-hand"
            },
            "value": [
                "magical",
                "wand"
            ]
        },
        "usage": {
            "value": "held-in-one-hand"
        },
        "weight": {
            "value": "L"
        }
    },
    "flags": {},
    "img": "systems/pf2e/icons/equipment/wands/specialty-wands/wand-of-continuation.jpg",
    "name": "Wand of Continuation (5th-Level Spell)",
    "permission": {
        "default": 0
    },
    "type": "equipment"
}
