{
    "_id": "TGxZ3acyWjjTvfU9",
    "data": {
        "brokenThreshold": {
            "value": 0
        },
        "bulkCapacity": {
            "value": ""
        },
        "collapsed": {
            "value": false
        },
        "containerId": {
            "value": ""
        },
        "description": {
            "chat": "",
            "unidentified": "",
            "value": "<p><span>The end of this wand is forked instead of tapered.<br /></span></p>\n<p><span><strong>Activate</strong> Cast a Spell; <strong>Frequency</strong> once per day, plus overcharge; This activation takes <span style=\"font-family: 'Pathfinder2eActions'; font-size: 1.8em; display: inline;\">D</span> if the spell normally takes <span style=\"font-family: 'Pathfinder2eActions'; font-size: 1.8em; display: inline;\">A</span> to cast, or <span style=\"font-family: 'Pathfinder2eActions'; font-size: 1.8em; display: inline;\">T</span> if the spell normally takes <span style=\"font-family: 'Pathfinder2eActions'; font-size: 1.8em; display: inline;\">D</span>; <strong>Effect</strong> You Cast the Spell, and increase its area. Add 5 feet to the radius of a burst that normally has a radius of at least 10 feet; add 5 feet to the length of a cone or line that is normally 15 feet long or smaller; or add 10 feet to the length of a larger cone or line.<br /></span></p>\n<p><span><strong>Craft Requirements</strong> Supply a casting of a spell of the appropriate level. The spell must have a casting time of <span style=\"font-family: 'Pathfinder2eActions'; font-size: 1.8em; display: inline;\">A</span> or <span style=\"font-family: 'Pathfinder2eActions'; font-size: 1.8em; display: inline;\">D</span>, can't have a duration, and must have an area of burst (10 feet or more), cone, or line.</span></p>"
        },
        "equipped": {
            "value": false
        },
        "equippedBulk": {
            "value": ""
        },
        "hardness": {
            "value": 0
        },
        "hp": {
            "value": 0
        },
        "identified": {
            "value": true
        },
        "invested": {
            "value": false
        },
        "level": {
            "value": "12"
        },
        "maxHp": {
            "value": 0
        },
        "negateBulk": {
            "value": "0"
        },
        "preciousMaterial": {
            "value": ""
        },
        "preciousMaterialGrade": {
            "value": ""
        },
        "price": {
            "value": "2,000 gp"
        },
        "quantity": {
            "value": "1"
        },
        "rarity": {
            "value": "common"
        },
        "source": {
            "value": ""
        },
        "stackGroup": {
            "value": ""
        },
        "traits": {
            "custom": "",
            "rarity": {
                "value": "common"
            },
            "usage": {
                "value": "held-in-one-hand"
            },
            "value": [
                "magical",
                "wand"
            ]
        },
        "usage": {
            "value": "held-in-one-hand"
        },
        "weight": {
            "value": "L"
        }
    },
    "flags": {},
    "img": "systems/pf2e/icons/equipment/wands/specialty-wands/wand-of-widening.jpg",
    "name": "Wand of Widening (5th-Level Spell)",
    "permission": {
        "default": 0
    },
    "type": "equipment"
}
