{
    "_id": "Af7beeFZhtvDAZaM",
    "description": "Table of 15th-Level Consumables Items",
    "displayRoll": true,
    "flags": {
        "core": {
            "sourceId": "RollTable.QzwHpMPZeNOzH9kQ"
        }
    },
    "formula": "1d63",
    "img": "icons/svg/d20-grey.svg",
    "name": "15th-Level Consumables Items",
    "permission": {
        "default": 0
    },
    "replacement": true,
    "results": [
        {
            "_id": "mYq4p5qykRLe1Ok4",
            "collection": "pf2e.equipment-srd",
            "drawn": false,
            "flags": {},
            "img": "systems/pf2e/icons/equipment/consumables/ammunition/disintegration-bolt.jpg",
            "range": [
                1,
                3
            ],
            "resultId": "Gfew65lwkzZc3mUV",
            "text": "Disintegration Bolt",
            "type": 2,
            "weight": 3
        },
        {
            "_id": "QN2b9QvvhEhXYHss",
            "collection": "pf2e.equipment-srd",
            "drawn": false,
            "flags": {},
            "img": "systems/pf2e/icons/equipment/consumables/ammunition/spellstrike-ammunition.jpg",
            "range": [
                4,
                9
            ],
            "resultId": "WearPqN56FQofpF6",
            "text": "Spellstrike Ammunition (Type VII)",
            "type": 2,
            "weight": 6
        },
        {
            "_id": "k455WZW8SCQLXbsv",
            "collection": "pf2e.equipment-srd",
            "drawn": false,
            "flags": {},
            "img": "systems/pf2e/icons/equipment/consumables/ammunition/stone-bullet.jpg",
            "range": [
                10,
                15
            ],
            "resultId": "wTVBD8XHPG810rlH",
            "text": "Stone Bullet",
            "type": 2,
            "weight": 6
        },
        {
            "_id": "aPbhuQl16Dn83HR8",
            "collection": "pf2e.equipment-srd",
            "drawn": false,
            "flags": {},
            "img": "systems/pf2e/icons/equipment/alchemical-items/alchemical-elixirs/bravos-brew.jpg",
            "range": [
                16,
                21
            ],
            "resultId": "sWPkbSlWAEAStBqD",
            "text": "Bravo's Brew (Greater)",
            "type": 2,
            "weight": 6
        },
        {
            "_id": "3EqXFbXhBaS3HemC",
            "collection": "pf2e.equipment-srd",
            "drawn": false,
            "flags": {},
            "img": "systems/pf2e/icons/equipment/alchemical-items/alchemical-elixirs/elixir-of-life.jpg",
            "range": [
                22,
                27
            ],
            "resultId": "AmxSqEoFhRLMYd1W",
            "text": "Elixir of Life (Major)",
            "type": 2,
            "weight": 6
        },
        {
            "_id": "oLZsd9xeniDUB97N",
            "collection": "pf2e.equipment-srd",
            "drawn": false,
            "flags": {},
            "img": "systems/pf2e/icons/equipment/alchemical-items/alchemical-elixirs/sea-touch-elixir.jpg",
            "range": [
                28,
                33
            ],
            "resultId": "i4D4B7tpYv9vMvQY",
            "text": "Sea Touch Elixir (Greater)",
            "type": 2,
            "weight": 6
        },
        {
            "_id": "lLzSpPUauPOj4sfl",
            "collection": "pf2e.equipment-srd",
            "drawn": false,
            "flags": {},
            "img": "systems/pf2e/icons/equipment/consumables/oils/obfuscation-oil.jpg",
            "range": [
                34,
                39
            ],
            "resultId": "QD5rDuk0OHadPGuh",
            "text": "Obfuscation Oil",
            "type": 2,
            "weight": 6
        },
        {
            "_id": "HpyqvpBDM6D2jUC6",
            "collection": "pf2e.equipment-srd",
            "drawn": false,
            "flags": {},
            "img": "systems/pf2e/icons/equipment/alchemical-items/alchemical-poisons/dragon-bile.jpg",
            "range": [
                40,
                45
            ],
            "resultId": "6swrLimere2nZtz9",
            "text": "Dragon Bile",
            "type": 2,
            "weight": 6
        },
        {
            "_id": "iVRvYJVcwJbGNujk",
            "collection": "pf2e.equipment-srd",
            "drawn": false,
            "flags": {},
            "img": "systems/pf2e/icons/equipment/alchemical-items/alchemical-poisons/mindfog-mist.jpg",
            "range": [
                46,
                51
            ],
            "resultId": "GMi5tw0cbMx3ZQPg",
            "text": "Mindfog Mist",
            "type": 2,
            "weight": 6
        },
        {
            "_id": "n93IZ9OXbT0N8exF",
            "collection": "pf2e.equipment-srd",
            "drawn": false,
            "flags": {},
            "img": "systems/pf2e/icons/equipment/consumables/potions/potion-of-flying.jpg",
            "range": [
                52,
                57
            ],
            "resultId": "E999hL7XlAlfZhjK",
            "text": "Potion of Flying (Greater)",
            "type": 2,
            "weight": 6
        },
        {
            "_id": "dfzcLplUcufLhROU",
            "collection": "pf2e.equipment-srd",
            "drawn": false,
            "flags": {},
            "img": "systems/pf2e/icons/equipment/consumables/other-consumables/spell-scroll.jpg",
            "range": [
                58,
                63
            ],
            "resultId": "iPki3yuoucnj7bIt",
            "text": "Scroll of 8th-level Spell",
            "type": 2,
            "weight": 6
        }
    ]
}
