{
    "_id": "mk6rzaAzsBBRGJnh",
    "data": {
        "actionCategory": {
            "value": ""
        },
        "actionType": {
            "value": "reaction"
        },
        "actions": {
            "value": ""
        },
        "description": {
            "chat": "",
            "unidentified": "",
            "value": "<p><strong>Trigger</strong> You attempt an attack roll, skill check, or saving throw while performing the course of action from your @Compendium[pf2e.spells-srd.Augury]{Augury}, but you haven't rolled yet</p>\n<hr />\n<p>You gain a +1 status bonus to the triggering check, or a +2 status bonus if the result of the augury was \"woe\" and you proceeded anyway.</p>"
        },
        "rarity": {
            "value": "common"
        },
        "requirements": {
            "value": ""
        },
        "rules": [],
        "skill_requirement": {
            "skill": {
                "rank": "",
                "skill": ""
            }
        },
        "skill_requirements": {
            "rank": "",
            "skill": ""
        },
        "source": {
            "value": ""
        },
        "traits": {
            "custom": "",
            "selected": {
                "concentrate": "Concentrate"
            },
            "value": [
                "concentrate"
            ]
        },
        "trigger": {
            "value": ""
        },
        "usage": {
            "value": "held-in-one-hand"
        },
        "weapon": {
            "value": ""
        }
    },
    "effects": [],
    "flags": {},
    "img": "systems/pf2e/icons/actions/Reaction.png",
    "name": "Call Upon the Brightness",
    "permission": {
        "default": 0
    },
    "type": "action"
}
