{
    "_id": "tMsAj0H0B9XZQjtH",
    "data": {
        "actionCategory": {
            "value": ""
        },
        "actionType": {
            "value": "passive"
        },
        "actions": {
            "value": ""
        },
        "description": {
            "chat": "",
            "unidentified": "",
            "value": "<p><strong>Archetype</strong>@Compendium[pf2e.archetypes.Golem Grafter]{Golem Grafter}</p>\n<p>You have replaced one of your forearms with one made of clay and infused with cursed arcane magic. When you make an unarmed Strike with your clay fist and hit, your target takes a -2 status penalty to saving throws against <a href=\"https://2e.aonprd.com/Traits.aspx?ID=38\">curse</a> effects for 1 hour.</p>\n<p><strong>Special</strong> The damage die for your clay fist is 1d8, and it loses the <a href=\"https://2e.aonprd.com/Traits.aspx?ID=170\">agile</a> and <a href=\"https://2e.aonprd.com/Traits.aspx?ID=179\">finesse</a> traits of a typical fist.</p>"
        },
        "featType": {
            "value": "archetype"
        },
        "level": {
            "value": "10"
        },
        "prerequisites": {
            "value": [
                "Golem Grafter Dedication",
                "expert in unarmed attacks"
            ]
        },
        "rarity": {
            "value": "common"
        },
        "source": {
            "value": ""
        },
        "traits": {
            "custom": "",
            "rarity": {
                "value": "common"
            },
            "value": [
                "archetype",
                "curse"
            ]
        },
        "usage": {
            "value": "held-in-one-hand"
        }
    },
    "flags": {},
    "img": "systems/pf2e/icons/features/feats/feats.jpg",
    "name": "Accursed Clay Fist",
    "permission": {
        "default": 0
    },
    "type": "feat"
}
