{
    "_id": "qxh4evekG28Gt1vj",
    "data": {
        "actionCategory": {
            "value": ""
        },
        "actionType": {
            "label": "Action Type",
            "type": "String",
            "value": "passive"
        },
        "actions": {
            "label": "Number of Actions",
            "type": "String",
            "value": ""
        },
        "description": {
            "chat": "",
            "label": "Description",
            "type": "String",
            "unidentified": "",
            "value": "<p>Your arcane legacy grants you an exceptional aptitude for intellectual and academic pursuits. You become trained in one skill of your choice. Additionally, you keep a book of arcane spells similar to a wizard's spellbook. You add all the spells in your spell repertoire to this book for free, and you can add additional arcane spells to the book by paying the appropriate cost and using your Arcana skill, similarly to how a wizard can Learn Spells to add those spells to his spellbook. During your daily preparations, choose any one spell from your book of arcane spells. If it isn't in your spell repertoire, add it to your spell repertoire until the next time you prepare. If it's already in your spell repertoire, add it as an additional signature spell for that day.</p>"
        },
        "featType": {
            "label": "Feat Type",
            "type": "String",
            "value": "class"
        },
        "level": {
            "label": "Feat Level",
            "type": "String",
            "value": "4"
        },
        "prerequisites": {
            "label": "Prerequisites",
            "type": "String",
            "value": [
                "bloodline that grants arcane spells"
            ]
        },
        "rarity": {
            "value": "common"
        },
        "source": {
            "label": "Source",
            "type": "String",
            "value": ""
        },
        "traits": {
            "custom": "",
            "label": "Traits",
            "rarity": {
                "value": "common"
            },
            "type": "String",
            "value": [
                "arcane",
                "sorcerer"
            ]
        },
        "usage": {
            "value": "held-in-one-hand"
        }
    },
    "flags": {},
    "img": "systems/pf2e/icons/features/feats/feats.jpg",
    "name": "Arcane Evolution",
    "permission": {
        "default": 0
    },
    "type": "feat"
}
