{
    "_id": "wYerMk6F1RZb0Fwt",
    "data": {
        "actionCategory": {
            "value": ""
        },
        "actionType": {
            "value": "action"
        },
        "actions": {
            "value": "1"
        },
        "description": {
            "chat": "",
            "unidentified": "",
            "value": "<p><strong>Requirements</strong> You are holding or wearing healer's tools.</p>\n<hr /><p>You can patch up yourself or an adjacent ally, even in combat. Attempt a Medicine check with the same DC as for Treat Wounds, and restore a corresponding amount of Hit Points; this does not remove the @Compendium[pf2e.conditionitems.Wounded]{Wounded} condition. As with Treat Wounds, you can attempt checks against higher DCs if you have the minimum proficiency rank. The target is then temporarily immune to your Battle Medicine for 1 day.<br /><strong>Editors note:</strong> Paizo has clarified the usage of worn tools: </p><blockquote>Worn tools should only take 1 hand to use, as you only draw the things you need from the kit and not the entire kit. This has been marked for future errata.</blockquote><p></p>"
        },
        "featType": {
            "value": "skill"
        },
        "level": {
            "value": "1"
        },
        "prerequisites": {
            "value": [
                "trained in Medicine"
            ]
        },
        "rarity": {
            "value": "common"
        },
        "source": {
            "value": ""
        },
        "traits": {
            "custom": "",
            "rarity": {
                "value": "common"
            },
            "value": [
                "manipulate",
                "general",
                "skill",
                "healing"
            ]
        },
        "usage": {
            "value": "held-in-one-hand"
        }
    },
    "flags": {},
    "img": "systems/pf2e/icons/features/feats/feats.jpg",
    "name": "Battle Medicine",
    "permission": {
        "default": 0
    },
    "type": "feat"
}
