{
    "_id": "mnH68QcFRtkMbNE0",
    "data": {
        "actionCategory": {
            "value": ""
        },
        "actionType": {
            "value": "passive"
        },
        "actions": {
            "value": ""
        },
        "description": {
            "chat": "",
            "unidentified": "",
            "value": "<p>You can sharpen weapons, polish armor, and apply special techniques to temporarily gain better effects from your armaments. By spending 1 hour working on a weapon or armor, you can grant it the effects of a <em>+1 potency</em> rune until your next daily preparations, gaining a +1 item bonus to attack rolls for a weapon or increasing armor's item bonus to AC by 1. This has no effect if the weapon or armor already had a <em>potency</em> rune.</p>"
        },
        "featType": {
            "value": "ancestry"
        },
        "level": {
            "value": "9"
        },
        "prerequisites": {
            "value": [
                "master in Crafting"
            ]
        },
        "rarity": {
            "value": "common"
        },
        "source": {
            "value": ""
        },
        "traits": {
            "custom": "",
            "rarity": {
                "value": "common"
            },
            "value": [
                "dwarf"
            ]
        },
        "usage": {
            "value": "held-in-one-hand"
        }
    },
    "flags": {},
    "img": "systems/pf2e/icons/features/feats/feats.jpg",
    "name": "Battleforger",
    "permission": {
        "default": 0
    },
    "type": "feat"
}
