{
    "_id": "y2XeMe1F18lIyo59",
    "data": {
        "actionCategory": {
            "value": ""
        },
        "actionType": {
            "value": "passive"
        },
        "actions": {
            "value": ""
        },
        "description": {
            "chat": "",
            "unidentified": "",
            "value": "<p>Your battle insights make you more aware of concealed and invisible opponents. You don't need to succeed at a flat check to target @Compendium[pf2e.conditionitems.Concealed]{Concealed} creatures.</p>\n<p>You're not @Compendium[pf2e.conditionitems.Flat-Footed]{Flat-Footed} to creatures that are @Compendium[pf2e.conditionitems.Hidden]{Hidden} from you (unless you're flat-footed to them for reasons other than the hidden condition), and you need only a successful DC 5 flat check to target a hidden creature.</p>\n<p>While you're adjacent to an @Compendium[pf2e.conditionitems.Undetected]{Undetected} creature of your level or lower, it is instead only hidden from you.</p>"
        },
        "featType": {
            "value": "class"
        },
        "level": {
            "value": "8"
        },
        "prerequisites": {
            "value": [
                "master in Perception"
            ]
        },
        "rarity": {
            "value": "common"
        },
        "source": {
            "value": ""
        },
        "traits": {
            "custom": "",
            "rarity": {
                "value": "common"
            },
            "value": [
                "fighter",
                "investigator",
                "ranger",
                "rogue"
            ]
        },
        "usage": {
            "value": ""
        }
    },
    "flags": {},
    "img": "systems/pf2e/icons/features/feats/feats.jpg",
    "name": "Blind-Fight",
    "permission": {
        "default": 0
    },
    "type": "feat"
}
