{
    "_id": "gt9pvIicabSOe6pB",
    "data": {
        "actionCategory": {
            "value": ""
        },
        "actionType": {
            "label": "Action Type",
            "type": "String",
            "value": "action"
        },
        "actions": {
            "label": "Number of Actions",
            "type": "String",
            "value": "1"
        },
        "description": {
            "chat": "",
            "label": "Description",
            "type": "String",
            "unidentified": "",
            "value": "<p><strong>Requirements</strong> You are wielding a two-handed melee weapon</p>\n<hr />\n<p>Throwing your weight behind your attack, you hit your opponent hard enough to make it stumble back. Make a Strike with a two-handed melee weapon. If you hit a target that is your size or smaller, that creature is flat-footed until the end of your current turn, and you can automatically Shove it, with the same benefits as the Shove action (including the critical success effect, if your Strike was a critical hit). If you move to follow the target, your movement doesn't trigger reactions. This Strike has the following failure effect.</p>\n<p><strong>Failure</strong> The target becomes flat-footed until the end of your current turn.</p>"
        },
        "featType": {
            "label": "Feat Type",
            "type": "String",
            "value": "class"
        },
        "level": {
            "label": "Feat Level",
            "type": "String",
            "value": "2"
        },
        "prerequisites": {
            "label": "Prerequisites",
            "type": "String",
            "value": [
                ""
            ]
        },
        "rarity": {
            "value": "common"
        },
        "source": {
            "label": "Source",
            "type": "String",
            "value": ""
        },
        "traits": {
            "custom": "",
            "label": "Traits",
            "rarity": {
                "value": "common"
            },
            "type": "String",
            "value": [
                "fighter",
                "press"
            ]
        },
        "usage": {
            "value": "held-in-one-hand"
        }
    },
    "flags": {},
    "img": "systems/pf2e/icons/features/feats/feats.jpg",
    "name": "Brutish Shove",
    "permission": {
        "default": 0
    },
    "type": "feat"
}
