{
    "_id": "CAaXGhHDMRM3Pt4J",
    "data": {
        "actionCategory": {
            "value": ""
        },
        "actionType": {
            "value": "passive"
        },
        "actions": {
            "value": ""
        },
        "description": {
            "chat": "",
            "unidentified": "",
            "value": "<p><strong>Requirements</strong> You have pledged your service to a specific <br />organization or ideal (see Cavalier Pledges, below).</p>\n<hr />\n<p>You fly the banner of your pledge from your mount, raising your allies' spirits. You and all allies within 30 feet gain a +1 circumstance bonus to Will saves and DCs against fear effects. If your banner is destroyed or removed, allies within 30 feet become @Compendium[pf2e.conditionitems.Frightened]{Frightened} 1.</p>\n<hr />\n<p><strong>CAVALIER PLEDGES</strong></p>\n<p>Many cavaliers pledge themselves in service to a specific organization or individual, such as a noble family or sovereign ruler, a knightly order or another organization, or a particular ideal. A cavalier pledged to an order or ideal must uphold its edicts and is beholden to any anathema it has; for example, a cavalier pledged to the druid's animal order would be tied to that anathema, while a cavalier pledged to the church of Abadar would be held to the same standards as a cleric of that god. If you pledge yourself to an entity or cause without a stated anathema, you should work with your GM to determine the edicts and anathema associated with your pledge.</p>\n<p>Cavaliers who have pledged themselves can gain access to certain abilities related to that pledge, such as Cavalier's Banner. If you violate the anathema of your pledge, you lose access to those feats until you benefit from an @Compendium[pf2e.spells-srd.Atone]{Atone} ritual. Changing the subject of your pledge is equivalent to retraining a class feature.</p>"
        },
        "featType": {
            "value": "archetype"
        },
        "level": {
            "value": "4"
        },
        "prerequisites": {
            "value": [
                "Cavalier Dedication"
            ]
        },
        "rarity": {
            "value": "common"
        },
        "source": {
            "value": ""
        },
        "traits": {
            "rarity": {
                "value": "common"
            },
            "value": [
                "uncommon",
                "archetype",
                "emotion",
                "mental",
                "visual"
            ]
        },
        "usage": {
            "value": ""
        }
    },
    "flags": {},
    "img": "systems/pf2e/icons/features/feats/feats.jpg",
    "name": "Cavalier's Banner",
    "permission": {
        "default": 0
    },
    "type": "feat"
}
