{
    "_id": "nvPxCUOCMaYdhLp1",
    "data": {
        "actionCategory": {
            "value": ""
        },
        "actionType": {
            "label": "Action Type",
            "type": "String",
            "value": "reaction"
        },
        "actions": {
            "label": "Number of Actions",
            "type": "String",
            "value": ""
        },
        "description": {
            "chat": "",
            "label": "Description",
            "type": "String",
            "unidentified": "",
            "value": "<p><strong>Trigger</strong> You complete the last action on your turn, and your turn has not ended yet.</p>\n<p><strong>Requirements</strong> You meet the requirements to use an action with the press trait.</p>\n<hr />\n<p>You throw everything into one last press. Use a single action that you know with the press trait as part of Desperate Finisher. You forgo the ability to use reactions until the start of your next turn.</p>"
        },
        "featType": {
            "label": "Feat Type",
            "type": "String",
            "value": "class"
        },
        "level": {
            "label": "Feat Level",
            "type": "String",
            "value": "14"
        },
        "prerequisites": {
            "label": "Prerequisites",
            "type": "String",
            "value": [
                ""
            ]
        },
        "rarity": {
            "value": "common"
        },
        "source": {
            "label": "Source",
            "type": "String",
            "value": ""
        },
        "traits": {
            "custom": "",
            "label": "Traits",
            "rarity": {
                "value": "common"
            },
            "type": "String",
            "value": [
                "fighter"
            ]
        },
        "usage": {
            "value": "held-in-one-hand"
        }
    },
    "flags": {},
    "img": "systems/pf2e/icons/features/feats/feats.jpg",
    "name": "Desperate Finisher",
    "permission": {
        "default": 0
    },
    "type": "feat"
}
