{
    "_id": "EOmTf95t03y4IGdp",
    "data": {
        "actionCategory": {
            "value": ""
        },
        "actionType": {
            "value": "passive"
        },
        "actions": {
            "value": ""
        },
        "description": {
            "chat": "",
            "unidentified": "",
            "value": "<p>Few can sway you from your goals while the fury of combat fills you. While raging, you gain a +2 status bonus to saving throws against emotion effects.</p>"
        },
        "featType": {
            "value": "class"
        },
        "level": {
            "value": "1"
        },
        "prerequisites": {
            "value": [
                "dragon instinct"
            ]
        },
        "rarity": {
            "value": "common"
        },
        "source": {
            "value": ""
        },
        "traits": {
            "rarity": {
                "value": "common"
            },
            "value": [
                "barbarian",
                "rage"
            ]
        },
        "usage": {
            "value": ""
        }
    },
    "flags": {},
    "img": "systems/pf2e/icons/features/feats/feats.jpg",
    "name": "Draconic Arrogance",
    "permission": {
        "default": 0
    },
    "type": "feat"
}
