{
    "_id": "r72qcTupGzyRDiGe",
    "data": {
        "actionCategory": {
            "value": ""
        },
        "actionType": {
            "value": "passive"
        },
        "actions": {
            "value": ""
        },
        "description": {
            "chat": "",
            "unidentified": "",
            "value": "<p>You are always ready to draw your weapon and begin a duel, no matter the circumstances. You gain the @Compendium[pf2e.feats-srd.Quick Draw]{Quick Draw} ranger feat, enabling you to both draw and attack with a weapon as 1 action. This serves as Quick Draw for the purpose of meeting prerequisites.</p>\n<p><strong>Special</strong> You cannot select another dedication feat until you have gained two other feats from the duelist archetype.</p>"
        },
        "featType": {
            "value": "archetype"
        },
        "level": {
            "value": "2"
        },
        "prerequisites": {
            "value": [
                "trained in light armor and simple weapons"
            ]
        },
        "rarity": {
            "value": "common"
        },
        "source": {
            "value": ""
        },
        "traits": {
            "rarity": {
                "value": "common"
            },
            "value": [
                "archetype",
                "dedication"
            ]
        },
        "usage": {
            "value": ""
        }
    },
    "flags": {},
    "img": "systems/pf2e/icons/features/feats/feats.jpg",
    "name": "Duelist Dedication",
    "permission": {
        "default": 0
    },
    "type": "feat"
}
