{
    "_id": "Ws9JlysHcFoz6WAQ",
    "data": {
        "actionCategory": {
            "value": ""
        },
        "actionType": {
            "value": "passive"
        },
        "actions": {
            "value": ""
        },
        "description": {
            "chat": "",
            "unidentified": "",
            "value": "<p>You understand the principles of forensic medicine, making you better at examining a body to determine the cause of death or injury.</p>\n<p>You can perform a forensic examination on a body, as described under @Compendium[pf2e.actionspf2e.Recall Knowledge (Medicine)]{Recall Knowledge} in the Medicine skill, in half the normal amount of time it would take (to a minimum of 5 minutes).</p>\n<p>If you succeed at your check, you can attempt an immediate check to Recall Knowledge to follow up on something you found, with a +2 circumstance bonus.</p>\n<p>This check is usually related to the cause of injury or death, such as a Crafting check to identify a poison or weapon that was used or an additional Medicine check to identify a specific disease. If you prefer, you can instead attempt to Recall Knowledge about the type of creature whose body you were examining, using the appropriate skill and gaining the same circumstance bonus.</p>\n<p>The circumstance bonus increases to +3 if you have master proficiency in Medicine and +4 if you have legendary proficiency.</p>"
        },
        "featType": {
            "value": "skill"
        },
        "level": {
            "value": "1"
        },
        "prerequisites": {
            "value": [
                "trained in Medicine"
            ]
        },
        "rarity": {
            "value": "common"
        },
        "source": {
            "value": ""
        },
        "traits": {
            "rarity": {
                "value": "common"
            },
            "value": [
                "general",
                "skill"
            ]
        },
        "usage": {
            "value": ""
        }
    },
    "flags": {},
    "img": "systems/pf2e/icons/features/feats/feats.jpg",
    "name": "Forensic Acumen",
    "permission": {
        "default": 0
    },
    "type": "feat"
}
