{
    "_id": "607fIUg4JjG0aIRx",
    "data": {
        "actionCategory": {
            "value": ""
        },
        "actionType": {
            "label": "Action Type",
            "type": "String",
            "value": "passive"
        },
        "actions": {
            "label": "Number of Actions",
            "type": "String",
            "value": ""
        },
        "description": {
            "chat": "",
            "label": "Description",
            "type": "String",
            "unidentified": "",
            "value": "<p>Your goblin affinity blends with your class training, granting you great skill with goblin weapons. Whenever you gain a class feature that grants you expert or greater proficiency in a given weapon or weapons, you also gain that proficiency in the dogslicer, horsechopper, and all goblin weapons in which you are trained.</p>"
        },
        "featType": {
            "label": "Feat Type",
            "type": "String",
            "value": "ancestry"
        },
        "level": {
            "label": "Feat Level",
            "type": "String",
            "value": "13"
        },
        "prerequisites": {
            "label": "Prerequisites",
            "type": "String",
            "value": [
                "Goblin Weapon Familiarity"
            ]
        },
        "rarity": {
            "value": "common"
        },
        "source": {
            "label": "Source",
            "type": "String",
            "value": ""
        },
        "traits": {
            "custom": "",
            "label": "Traits",
            "rarity": {
                "value": "common"
            },
            "type": "String",
            "value": [
                "goblin"
            ]
        },
        "usage": {
            "value": "held-in-one-hand"
        }
    },
    "flags": {},
    "img": "systems/pf2e/icons/features/feats/feats.jpg",
    "name": "Goblin Weapon Expertise",
    "permission": {
        "default": 0
    },
    "type": "feat"
}
