{
    "_id": "DqD7htz8Sd1dh3BT",
    "data": {
        "actionCategory": {
            "value": ""
        },
        "actionType": {
            "value": "action"
        },
        "actions": {
            "value": "1"
        },
        "description": {
            "chat": "",
            "unidentified": "",
            "value": "<p>You lower yourself to the ground and take an imposing, knuckle - walking stance.</p>\n<p>While in this stance, the only @Compendium[pf2e.actionspf2e.Strike]{Strikes} you can make are gorilla slam unarmed attacks. These deal <a class=\"inline-roll roll\" title=\"bludgeoning\" data-mode=\"roll\" data-flavor=\"bludgeoning\" data-formula=\"1d8\"> 1d8</a> bludgeoning damage; are in the brawling group; and have the backswing, forceful, grapple, nonlethal, and unarmed traits.</p>\n<p>While you are in Gorilla Stance, you gain a +2 circumstance bonus to Athletics checks to @Compendium[pf2e.actionspf2e.Climb]{Climb}, and if you roll a success on an Athletics check to Climb, you get a critical success instead.</p>\n<p>@Compendium[pf2e.spell-effects.Stance: Gorilla Stance]{Stance: Gorilla Stance}</p>"
        },
        "featType": {
            "value": "class"
        },
        "level": {
            "value": 1
        },
        "prerequisites": {
            "value": [
                ""
            ]
        },
        "rarity": {
            "value": "common"
        },
        "rules": [],
        "source": {
            "value": ""
        },
        "traits": {
            "rarity": {
                "value": "common"
            },
            "value": [
                "monk",
                "stance"
            ]
        },
        "usage": {
            "value": ""
        }
    },
    "effects": [],
    "flags": {},
    "img": "systems/pf2e/icons/features/feats/feats.jpg",
    "name": "Gorilla Stance",
    "permission": {
        "default": 0
    },
    "type": "feat"
}
