{
    "_id": "gVLICIDQMvWN5D89",
    "data": {
        "actionCategory": {
            "value": ""
        },
        "actionType": {
            "value": "passive"
        },
        "actions": {
            "value": ""
        },
        "description": {
            "chat": "",
            "unidentified": "",
            "value": "<p>Your magical blood is rich with spiritual essence, and this infusion within you allows your spells to be fully effective against incorporeal creatures, spirits, and creatures on the Ethereal Plane.</p>\n<p>Your spells have the effects of a @Compendium[pf2e.equipment-srd.Ghost Touch]{Ghost Touch} property rune. They can target or affect a creature projecting its consciousness (such as via @Compendium[pf2e.spells-srd.Project Image]{Project Image}) or possessing another creature, even if its body is elsewhere, though you must know about the possession or projection and choose to do so. Your spells can affect creatures on the Ethereal Plane, though this doesn't grant you any particular ability to locate them.</p>"
        },
        "featType": {
            "value": "class"
        },
        "level": {
            "value": "12"
        },
        "prerequisites": {
            "value": [
                "Divine Evolution or Occult Evolution"
            ]
        },
        "rarity": {
            "value": "common"
        },
        "source": {
            "value": ""
        },
        "traits": {
            "rarity": {
                "value": "common"
            },
            "value": [
                "sorcerer"
            ]
        },
        "usage": {
            "value": ""
        }
    },
    "flags": {},
    "img": "systems/pf2e/icons/features/feats/feats.jpg",
    "name": "Greater Spiritual Evolution",
    "permission": {
        "default": 0
    },
    "type": "feat"
}
