{
    "_id": "guSjEQS3WuXJqQxf",
    "data": {
        "actionCategory": {
            "value": ""
        },
        "actionType": {
            "value": "action"
        },
        "actions": {
            "value": "2"
        },
        "description": {
            "chat": "",
            "unidentified": "",
            "value": "<p><strong>Requirements</strong> You are wielding a melee weapon that deals <br />piercing damage.</p>\n<hr />\n<p>You impale your enemy and hold them in place with your weapon.</p>\n<p>Make a melee @Compendium[pf2e.actionspf2e.Strike]{Strike} with the required weapon. If the Strike hits and deals damage, your target is @Compendium[pf2e.conditionitems.Grabbed]{Grabbed} until they successfully @Compendium[pf2e.actionspf2e.Escape]{Escape}, you attack with the required weapon, or you @Compendium[pf2e.actionspf2e.Release]{Release} the required weapon, whichever comes first.</p>\n<p>When the target is no longer grabbed, they take persistent bleed damage equal to the number of weapon damage dice.</p>"
        },
        "featType": {
            "value": "class"
        },
        "level": {
            "value": "14"
        },
        "prerequisites": {
            "value": [
                ""
            ]
        },
        "rarity": {
            "value": "common"
        },
        "source": {
            "value": ""
        },
        "traits": {
            "rarity": {
                "value": "common"
            },
            "value": [
                "barbarian",
                "rage"
            ]
        },
        "usage": {
            "value": ""
        }
    },
    "flags": {},
    "img": "systems/pf2e/icons/features/feats/feats.jpg",
    "name": "Impaling Thrust",
    "permission": {
        "default": 0
    },
    "type": "feat"
}
