{
    "_id": "9pTQrhbeF348bYky",
    "data": {
        "actionCategory": {
            "value": ""
        },
        "actionType": {
            "value": "reaction"
        },
        "actions": {
            "value": ""
        },
        "description": {
            "chat": "",
            "unidentified": "",
            "value": "<p><strong>Trigger</strong> One of the required allies is about to attempt an attack roll or skill check.</p>\n<p><strong>Requirements</strong> You spent 10 minutes during your daily <br />preparations reviewing stratagems for the day's adventures <br />with up to four allies.</p>\n<hr />\n<p>You quickly advise your ally, using your earlier planning to make sure luck can't throw a wrench in the cogs of your schemes.</p>\n<p>The ally rolls the triggering check twice and takes the better of the two results. That ally then becomes temporarily immune to your Inspired Stratagem until your next daily preparations.</p>"
        },
        "featType": {
            "value": "class"
        },
        "level": {
            "value": "8"
        },
        "prerequisites": {
            "value": [
                ""
            ]
        },
        "rarity": {
            "value": "common"
        },
        "source": {
            "value": ""
        },
        "traits": {
            "rarity": {
                "value": "common"
            },
            "value": [
                "fortune",
                "linguistic",
                "rogue"
            ]
        },
        "usage": {
            "value": ""
        }
    },
    "flags": {},
    "img": "systems/pf2e/icons/features/feats/feats.jpg",
    "name": "Inspired Stratagem",
    "permission": {
        "default": 0
    },
    "type": "feat"
}
