{
    "_id": "tH5w8vIfFCFNVP7T",
    "data": {
        "actionCategory": {
            "value": ""
        },
        "actionType": {
            "value": "passive"
        },
        "actions": {
            "value": ""
        },
        "description": {
            "chat": "",
            "unidentified": "",
            "value": "<p>You can invoke the Crimson Oath to unleash blasts of ruby energy from your weapon. You gain the @Compendium[pf2e.spells-srd.Invoke the Crimson Oath]{Invoke the Crimson Oath} focus spell. If you don't already have one, you gain a focus pool of 1 Focus Point, which you can regain using the Refocus activity to recite the Crimson Oath and meditate on its teachings; if you already have a focus pool, increase the number of Focus Points in your focus pool by 1. Your knight reclaimant focus spells are divine spells; when you gain this feat, you become trained in divine spell attacks and spell DCs.</p>"
        },
        "featType": {
            "value": "archetype"
        },
        "level": {
            "value": "8"
        },
        "prerequisites": {
            "value": [
                "Knight Reclaimant Dedication"
            ]
        },
        "rarity": {
            "value": "common"
        },
        "source": {
            "value": ""
        },
        "traits": {
            "custom": "",
            "rarity": {
                "value": "uncommon"
            },
            "value": [
                "archetype"
            ]
        },
        "usage": {
            "value": "held-in-one-hand"
        }
    },
    "flags": {},
    "img": "systems/pf2e/icons/features/feats/feats.jpg",
    "name": "Invoke the Crimson Oath",
    "permission": {
        "default": 0
    },
    "type": "feat"
}
