{
    "_id": "YidYY7k2gvny9eSY",
    "data": {
        "actionCategory": {
            "value": ""
        },
        "actionType": {
            "value": "passive"
        },
        "actions": {
            "value": ""
        },
        "description": {
            "chat": "",
            "unidentified": "",
            "value": "<p>You can use the oaths bound in your ka stone to compel the truth from the living and the dead. You can activate your ka stone to target a single living creature, causing that creature to experience the effects of being in a zone of truth. You can also activate it with a 10-minute activation (envision) to cast talking corpse.</p>"
        },
        "featType": {
            "value": "archetype"
        },
        "level": {
            "value": "12"
        },
        "prerequisites": {
            "value": [
                "Ka Stone Ritual"
            ]
        },
        "rarity": {
            "value": "common"
        },
        "source": {
            "value": ""
        },
        "traits": {
            "custom": "",
            "rarity": {
                "value": "common"
            },
            "value": [
                "archetype"
            ]
        },
        "usage": {
            "value": "held-in-one-hand"
        }
    },
    "flags": {},
    "img": "systems/pf2e/icons/features/feats/feats.jpg",
    "name": "Judgement of the Monolith",
    "permission": {
        "default": 0
    },
    "type": "feat"
}
