{
    "_id": "fFfRsvDavUsTBDF2",
    "data": {
        "actionCategory": {
            "value": ""
        },
        "actionType": {
            "value": "action"
        },
        "actions": {
            "value": "1"
        },
        "description": {
            "chat": "",
            "unidentified": "",
            "value": "<p>You go to extreme lengths to support your allies, even when it means bringing harm to yourself.</p>\n<p>If your next action is to cast @Compendium[pf2e.spells-srd.Harm]{Harm} or @Compendium[pf2e.spells-srd.Heal]{Heal} from your healing or harmful font to restore Hit Points to a single ally, you can channel your own vitality along with the spell. You lose [[/r 1d8]] Hit Points per level of the spell, which can't be reduced or mitigated in any way, and your ally regains an equal number of Hit Points.</p>"
        },
        "featType": {
            "value": "class"
        },
        "level": {
            "value": "8"
        },
        "prerequisites": {
            "value": [
                "divine font"
            ]
        },
        "rarity": {
            "value": "common"
        },
        "source": {
            "value": ""
        },
        "traits": {
            "rarity": {
                "value": "common"
            },
            "value": [
                "cleric",
                "metamagic"
            ]
        },
        "usage": {
            "value": ""
        }
    },
    "flags": {},
    "img": "systems/pf2e/icons/features/feats/feats.jpg",
    "name": "Martyr",
    "permission": {
        "default": 0
    },
    "type": "feat"
}
