{
    "_id": "i7ibUqJCl1GXRFEa",
    "data": {
        "actionCategory": {
            "value": ""
        },
        "actionType": {
            "value": "passive"
        },
        "actions": {
            "value": ""
        },
        "description": {
            "chat": "",
            "unidentified": "",
            "value": "<p>You gain the master spellcasting benefits (page 150).</p>"
        },
        "featType": {
            "value": "archetype"
        },
        "level": {
            "value": "18"
        },
        "prerequisites": {
            "value": [
                "Expert Witch Spellcasting",
                "legendary in the skill associated with your patron's tradition"
            ]
        },
        "rarity": {
            "value": "common"
        },
        "source": {
            "value": ""
        },
        "traits": {
            "rarity": {
                "value": "common"
            },
            "value": [
                "archetype"
            ]
        },
        "usage": {
            "value": ""
        }
    },
    "flags": {},
    "img": "systems/pf2e/icons/features/feats/feats.jpg",
    "name": "Master Witch Spellcasting",
    "permission": {
        "default": 0
    },
    "type": "feat"
}
