{
    "_id": "gqQK7dDrGPkQDfQQ",
    "data": {
        "actionCategory": {
            "value": ""
        },
        "actionType": {
            "value": "passive"
        },
        "actions": {
            "value": ""
        },
        "description": {
            "chat": "",
            "unidentified": "",
            "value": "<p>Your reckonings have prepared your body for physical punishment. Choose bludgeoning, piercing, or slashing damage, based on the nature of your physical reckonings. You gain resistance to the chosen damage type equal to your number of class feats from the Hellknight Armiger archetype and other Hellknight archetypes.</p>"
        },
        "featType": {
            "value": "archetype"
        },
        "level": {
            "value": "4"
        },
        "prerequisites": {
            "value": [
                "Hellknight Armiger Dedication"
            ]
        },
        "rarity": {
            "value": "common"
        },
        "source": {
            "value": ""
        },
        "traits": {
            "custom": "",
            "rarity": {
                "value": "common"
            },
            "value": [
                "archetype"
            ]
        },
        "usage": {
            "value": "held-in-one-hand"
        }
    },
    "flags": {},
    "img": "systems/pf2e/icons/features/feats/feats.jpg",
    "name": "Mortification",
    "permission": {
        "default": 0
    },
    "type": "feat"
}
