{
    "_id": "l60Ua5Ugv85GnF9b",
    "data": {
        "actionCategory": {
            "value": ""
        },
        "actionType": {
            "value": "passive"
        },
        "actions": {
            "value": ""
        },
        "description": {
            "chat": "",
            "unidentified": "",
            "value": "<p>Your mask protects you further from divination. Once per day, you can cast @Compendium[pf2e.spells-srd.Nondetection]{Nondetection} on yourself, heightened to the highest level of spell you can cast; the spell ends immediately if your mask is removed for even a moment.</p>"
        },
        "featType": {
            "value": "archetype"
        },
        "level": {
            "value": "6"
        },
        "prerequisites": {
            "value": [
                "Magic Warrior Dedication"
            ]
        },
        "rarity": {
            "value": "common"
        },
        "source": {
            "value": ""
        },
        "traits": {
            "custom": "",
            "rarity": {
                "value": "common"
            },
            "value": [
                "archetype"
            ]
        },
        "usage": {
            "value": "held-in-one-hand"
        }
    },
    "flags": {},
    "img": "systems/pf2e/icons/features/feats/feats.jpg",
    "name": "Nameless Anonymity",
    "permission": {
        "default": 0
    },
    "type": "feat"
}
