{
    "_id": "F6ZAceuDpiM9bUiF",
    "data": {
        "actionCategory": {
            "value": ""
        },
        "actionType": {
            "value": "passive"
        },
        "actions": {
            "value": ""
        },
        "description": {
            "chat": "",
            "unidentified": "",
            "value": "<p>You can use Nimble Dodge before attempting a Reflex save, in addition to its original trigger. If you do, the circumstance bonus applies to your Reflex save against the triggering effect.</p>\n<p>When you use Nimble Dodge and the triggering attack fails or critically fails, or when you succeed or critically succeed at the saving throw, you can also @Compendium[pf2e.actionspf2e.Stride]{Stride} up to 10 feet as part of the reaction. If you do, the reaction gains the move trait.</p>\n<p>You can use Nimble Roll while @Compendium[pf2e.actionspf2e.Fly]{Flying} or @Compendium[pf2e.actionspf2e.Swim]{Swimming} instead of Striding if you have the corresponding movement type.</p>"
        },
        "featType": {
            "value": "class"
        },
        "level": {
            "value": "8"
        },
        "prerequisites": {
            "value": [
                "Nimble Dodge"
            ]
        },
        "rarity": {
            "value": "common"
        },
        "source": {
            "value": ""
        },
        "traits": {
            "custom": "",
            "rarity": {
                "value": "common"
            },
            "value": [
                "rogue",
                "swashbuckler"
            ]
        },
        "usage": {
            "value": ""
        }
    },
    "flags": {},
    "img": "systems/pf2e/icons/features/feats/feats.jpg",
    "name": "Nimble Roll",
    "permission": {
        "default": 0
    },
    "type": "feat"
}
