{
    "_id": "LK6niBb38mEraYRS",
    "data": {
        "actionCategory": {
            "value": ""
        },
        "actionType": {
            "value": "passive"
        },
        "actions": {
            "value": ""
        },
        "description": {
            "chat": "",
            "unidentified": "",
            "value": "<p>Your physiology is slight, and you can pack into small spaces with others of similar stature.</p>\n<p>As long as you are Small, you can end your movement in the same square as a Small ally. Only two creatures total can share the same space when using this ability or a similar one.</p>"
        },
        "featType": {
            "value": "ancestry"
        },
        "level": {
            "value": "9"
        },
        "prerequisites": {
            "value": [
                ""
            ]
        },
        "rarity": {
            "value": "common"
        },
        "source": {
            "value": ""
        },
        "traits": {
            "rarity": {
                "value": "common"
            },
            "value": [
                "ratfolk"
            ]
        },
        "usage": {
            "value": ""
        }
    },
    "flags": {},
    "img": "systems/pf2e/icons/features/feats/feats.jpg",
    "name": "Overcrowd",
    "permission": {
        "default": 0
    },
    "type": "feat"
}
