{
    "_id": "aQjWHbjK1pk8HESM",
    "data": {
        "actionCategory": {
            "value": ""
        },
        "actionType": {
            "value": "passive"
        },
        "actions": {
            "value": ""
        },
        "description": {
            "chat": "",
            "unidentified": "",
            "value": "<div><strong>Archetype</strong> @Compendium[pf2e.archetypes.Student of Perfection]{Student of Perfection}</div>\n<div></div>\n<hr />\n<p>You gain the appropriate ki spell for your School of Perfection: @Compendium[pf2e.spells-srd.Unblinking Flame Revelation]{Unblinking Flame Revelation} for Unblinking Flame, @Compendium[pf2e.spells-srd.Unbreaking Wave Advance]{Unbreaking Wave Advance} for Unbreaking Waves, @Compendium[pf2e.spells-srd.Unfolding Wind Rush]{Unfolding Wind Rush} for Unfolding Wind, or @Compendium[pf2e.spells-srd.Untwisting Iron Buffer]{Untwisting Iron Buffer} for Untwisting Iron. Increase the number of Focus Points in your focus pool by 1.</p>"
        },
        "featType": {
            "value": "archetype"
        },
        "level": {
            "value": "6"
        },
        "prerequisites": {
            "value": [
                "Student of Perfection Dedication"
            ]
        },
        "rarity": {
            "value": "common"
        },
        "rules": [],
        "source": {
            "value": ""
        },
        "traits": {
            "custom": "",
            "rarity": {
                "value": "common"
            },
            "value": [
                "archetype"
            ]
        },
        "usage": {
            "value": "held-in-one-hand"
        }
    },
    "flags": {},
    "img": "systems/pf2e/icons/features/feats/feats.jpg",
    "name": "Perfect Ki Adept",
    "permission": {
        "default": 0
    },
    "type": "feat"
}
