{
    "_id": "SOG0yVNtiDsaNbIO",
    "data": {
        "actionCategory": {
            "value": ""
        },
        "actionType": {
            "value": "passive"
        },
        "actions": {
            "value": ""
        },
        "description": {
            "chat": "",
            "unidentified": "",
            "value": "<p>You're skilled with flashy weapons. You are trained with the @Compendium[pf2e.equipment-srd.Bo Staff]{Bo Staff}, @Compendium[pf2e.equipment-srd.Dueling Cape]{Dueling Cape} (page 249), @Compendium[pf2e.equipment-srd.Spiked Chain]{Spiked Chain}, @Compendium[pf2e.equipment-srd.Sword Cane]{Sword Cane} (page 248), and @Compendium[pf2e.equipment-srd.Whip]{Whip}.</p>\n<p>Whenever you gain a class feature that grants you expert or greater proficiency in a given weapon or weapons, you also gain that proficiency in the weapons listed.</p>"
        },
        "featType": {
            "value": "archetype"
        },
        "level": {
            "value": "6"
        },
        "prerequisites": {
            "value": [
                "Gladiator Dedication"
            ]
        },
        "rarity": {
            "value": "common"
        },
        "rules": [],
        "source": {
            "value": ""
        },
        "traits": {
            "rarity": {
                "value": "common"
            },
            "value": [
                "archetype"
            ]
        },
        "usage": {
            "value": ""
        }
    },
    "flags": {},
    "img": "systems/pf2e/icons/features/feats/feats.jpg",
    "name": "Performative Weapons Training",
    "permission": {
        "default": 0
    },
    "type": "feat"
}
