{
    "_id": "eHvJqBHYqx7UjpPg",
    "data": {
        "actionCategory": {
            "value": ""
        },
        "actionType": {
            "value": "passive"
        },
        "actions": {
            "value": ""
        },
        "description": {
            "chat": "",
            "unidentified": "",
            "value": "<p>You spot anything out of place in the areas you know best. While in your @Compendium[pf2e.feats-srd.Favored Terrain]{Favored Terrain}, you always gain the benefits of the @Compendium[pf2e.actionspf2e.Scout]{Scout} exploration activity, even if you are performing another exploration activity.</p>\n<p>If you're legendary in Survival, you gain these benefits in any terrain.</p>"
        },
        "featType": {
            "value": "archetype"
        },
        "level": {
            "value": "6"
        },
        "prerequisites": {
            "value": [
                "Horizon Walker Dedication"
            ]
        },
        "rarity": {
            "value": "common"
        },
        "rules": [],
        "source": {
            "value": ""
        },
        "traits": {
            "rarity": {
                "value": "common"
            },
            "value": [
                "archetype"
            ]
        },
        "usage": {
            "value": ""
        }
    },
    "flags": {},
    "img": "systems/pf2e/icons/features/feats/feats.jpg",
    "name": "Perpetual Scout",
    "permission": {
        "default": 0
    },
    "type": "feat"
}
