{
    "_id": "aFUxNGur3Hma8DKy",
    "data": {
        "actionCategory": {
            "value": ""
        },
        "actionType": {
            "label": "Action Type",
            "type": "String",
            "value": "action"
        },
        "actions": {
            "label": "Number of Actions",
            "type": "String",
            "value": "1"
        },
        "description": {
            "chat": "",
            "label": "Description",
            "type": "String",
            "unidentified": "",
            "value": "<p><strong>Requirements</strong> You are unarmored or wearing light armor</p>\n<hr />\n<p>You close the distance to your prey in a blur, pouncing on the creature before it can react. You Stride up to your Speed and make a Strike at the end of your movement.</p>"
        },
        "featType": {
            "label": "Feat Type",
            "type": "String",
            "value": "class"
        },
        "level": {
            "label": "Feat Level",
            "type": "String",
            "value": "12"
        },
        "prerequisites": {
            "label": "Prerequisites",
            "type": "String",
            "value": [
                "animal instinct"
            ]
        },
        "rarity": {
            "value": "common"
        },
        "rules": [],
        "source": {
            "label": "Source",
            "type": "String",
            "value": ""
        },
        "traits": {
            "custom": "",
            "label": "Traits",
            "rarity": {
                "value": "common"
            },
            "type": "String",
            "value": [
                "barbarian",
                "flourish",
                "instinct",
                "open",
                "rage"
            ]
        },
        "usage": {
            "value": "held-in-one-hand"
        }
    },
    "flags": {},
    "img": "systems/pf2e/icons/features/feats/feats.jpg",
    "name": "Predator's Pounce",
    "permission": {
        "default": 0
    },
    "type": "feat"
}
