{
    "_id": "tCuMXQ0yMrCNwzqW",
    "data": {
        "actionCategory": {
            "value": ""
        },
        "actionType": {
            "value": "passive"
        },
        "actions": {
            "value": ""
        },
        "description": {
            "chat": "",
            "unidentified": "",
            "value": "<p>Your healing energies create an aura of protection that defends your allies against more than just blades and arrows. An ally that recovers Hit Points from your @Compendium[pf2e.spells-srd.Lay on Hands]{Lay on Hands} gains a +1 status bonus to their saving throws until the end of their next turn.</p>"
        },
        "featType": {
            "value": "class"
        },
        "level": {
            "value": "10"
        },
        "prerequisites": {
            "value": [
                "devotion spell (lay on hands)"
            ]
        },
        "rarity": {
            "value": "common"
        },
        "rules": [],
        "source": {
            "value": ""
        },
        "traits": {
            "rarity": {
                "value": "common"
            },
            "value": [
                "champion"
            ]
        },
        "usage": {
            "value": ""
        }
    },
    "flags": {},
    "img": "systems/pf2e/icons/features/feats/feats.jpg",
    "name": "Resilient Touch",
    "permission": {
        "default": 0
    },
    "type": "feat"
}
