{
    "_id": "vDeG0N4kzTBDTC2b",
    "data": {
        "actionCategory": {
            "value": ""
        },
        "actionType": {
            "label": "Action Type",
            "type": "String",
            "value": "passive"
        },
        "actions": {
            "label": "Number of Actions",
            "type": "String",
            "value": ""
        },
        "description": {
            "chat": "",
            "label": "Description",
            "type": "String",
            "unidentified": "",
            "value": "<p><strong>Requirements</strong> You have a free hand</p>\n<hr />\n<p>You subtly damage others' equipment. Choose one item that a creature within your reach wields or carries. The item must have moving parts that you could possibly sabotage (a shortbow could be sabotaged, but a longsword could not). Attempt a Thievery check against the Reflex DC of the creature. Damage dealt by Sabotage can't take the item below its Break Threshold.</p>\n<p><strong>Critical Success:</strong> You deal damage equal to four times your Thievery proficiency bonus.</p>\n<p><strong>Success:</strong> You deal damage equal to double your Thievery proficiency bonus.</p>\n<p><strong>Critical Failure:</strong> Temporarily immune to your Sabotage for 1 day</p>"
        },
        "featType": {
            "label": "Feat Type",
            "type": "String",
            "value": "bonus"
        },
        "level": {
            "label": "Feat Level",
            "type": "String",
            "value": "4"
        },
        "prerequisites": {
            "label": "Prerequisites",
            "type": "String",
            "value": [
                ""
            ]
        },
        "rarity": {
            "value": "common"
        },
        "rules": [],
        "source": {
            "label": "Source",
            "type": "String",
            "value": ""
        },
        "traits": {
            "custom": "",
            "label": "Traits",
            "rarity": {
                "value": "common"
            },
            "type": "String",
            "value": [
                "rogue",
                "incapacitation"
            ]
        },
        "usage": {
            "value": "held-in-one-hand"
        }
    },
    "flags": {},
    "img": "systems/pf2e/icons/features/feats/feats.jpg",
    "name": "Sabotage",
    "permission": {
        "default": 0
    },
    "type": "feat"
}
