{
    "_id": "FItD6HmjasjbLdgS",
    "data": {
        "actionCategory": {
            "value": ""
        },
        "actionType": {
            "value": "passive"
        },
        "actions": {
            "value": ""
        },
        "description": {
            "chat": "",
            "unidentified": "",
            "value": "<p>The magical runes on your body grant you several magical abilities. Choose a 1st-level arcane spell. You gain a spell rune on your body corresponding to the chosen spell, which you can cast once per day as an innate spell. At 6th level, you gain a spell rune corresponding to a 2nd-level arcane spell, and at 8th level, you gain a spell rune corresponding to a 3rd-level arcane spell.</p>"
        },
        "featType": {
            "value": "archetype"
        },
        "level": {
            "value": "4"
        },
        "prerequisites": {
            "value": [
                "Runescarred Dedication"
            ]
        },
        "rarity": {
            "value": "common"
        },
        "rules": [],
        "source": {
            "value": ""
        },
        "traits": {
            "custom": "",
            "rarity": {
                "value": "common"
            },
            "value": [
                "archetype"
            ]
        },
        "usage": {
            "value": "held-in-one-hand"
        }
    },
    "flags": {},
    "img": "systems/pf2e/icons/features/feats/feats.jpg",
    "name": "Spell Runes",
    "permission": {
        "default": 0
    },
    "type": "feat"
}
