{
    "_id": "qg8TlLJRgvjzW9YK",
    "data": {
        "actionCategory": {
            "value": ""
        },
        "actionType": {
            "value": "action"
        },
        "actions": {
            "value": "1"
        },
        "description": {
            "chat": "",
            "unidentified": "",
            "value": "<p><strong>Requirements</strong> You are completely unnoticed by the target <br />creature.</p>\n<hr />\n<p>You can startle foes who are unaware of your presence. Make a @Compendium[pf2e.actionspf2e.Strike]{Strike} against your target. That creature is @Compendium[pf2e.conditionitems.Flat-Footed]{Flat-Footed} against this Strike, as normal. If your Strike hits, the target remains flat-footed for the rest of your turn and is @Compendium[pf2e.conditionitems.Frightened]{Frightened} 1 (frightened 2 on a critical hit).</p>"
        },
        "featType": {
            "value": "archetype"
        },
        "level": {
            "value": "6"
        },
        "prerequisites": {
            "value": [
                "Vigilante Dedication"
            ]
        },
        "rarity": {
            "value": "common"
        },
        "rules": [],
        "source": {
            "value": ""
        },
        "traits": {
            "rarity": {
                "value": "common"
            },
            "value": [
                "archetype",
                "emotion",
                "fear",
                "mental",
                "vigilante"
            ]
        },
        "usage": {
            "value": ""
        }
    },
    "flags": {},
    "img": "systems/pf2e/icons/features/feats/feats.jpg",
    "name": "Startling Appearance",
    "permission": {
        "default": 0
    },
    "type": "feat"
}
