{
    "_id": "kYA6LkDw4AzKI156",
    "data": {
        "actionCategory": {
            "value": ""
        },
        "actionType": {
            "value": "passive"
        },
        "actions": {
            "value": ""
        },
        "description": {
            "chat": "",
            "unidentified": "",
            "value": "<p><strong>Requirements</strong> You are in Stumbling Stance.</p>\n<hr />\n<p>You lash out confusingly with what seems to be a weak move but instead allows you to unleash a dangerous flurry of blows upon your unsuspecting foe.</p>\n<p>When you use @Compendium[pf2e.actionspf2e.Flurry of Blows]{Flurry of Blows}, you can attempt a check to @Compendium[pf2e.actionspf2e.Feint]{Feint} as a free action just before the first @Compendium[pf2e.actionspf2e.Strike]{Strike}. On a success, instead of making the target @Compendium[pf2e.conditionitems.Flat-Footed]{Flat-Footed} against your next attack, they become flat-footed against both attacks from the Flurry of Blows.</p>"
        },
        "featType": {
            "value": "class"
        },
        "level": {
            "value": "6"
        },
        "prerequisites": {
            "value": [
                "expert in Deception",
                "Stumbling Stance"
            ]
        },
        "rarity": {
            "value": "common"
        },
        "rules": [],
        "source": {
            "value": ""
        },
        "traits": {
            "rarity": {
                "value": "common"
            },
            "value": [
                "monk"
            ]
        },
        "usage": {
            "value": ""
        }
    },
    "flags": {},
    "img": "systems/pf2e/icons/features/feats/feats.jpg",
    "name": "Stumbling Feint",
    "permission": {
        "default": 0
    },
    "type": "feat"
}
