{
    "_id": "Uof5QNeGklGnks1h",
    "data": {
        "actionCategory": {
            "value": ""
        },
        "actionType": {
            "value": "passive"
        },
        "actions": {
            "value": ""
        },
        "description": {
            "chat": "",
            "unidentified": "",
            "value": "<p>Your senses are peerless. You gain a +2 circumstance bonus to Perception checks, and you gain low-light vision. If you already have low-light vision, gain darkvision instead. Furthermore, when you target an enemy, you automatically succeed at the flat check if that enemy is concealed, hidden, or undetected.</p>"
        },
        "featType": {
            "value": "class"
        },
        "level": {
            "value": "20"
        },
        "prerequisites": {
            "value": [
                ""
            ]
        },
        "rarity": {
            "value": "common"
        },
        "rules": [],
        "source": {
            "value": ""
        },
        "traits": {
            "custom": "",
            "rarity": {
                "value": "common"
            },
            "value": [
                "ranger"
            ]
        },
        "usage": {
            "value": "held-in-one-hand"
        }
    },
    "flags": {},
    "img": "systems/pf2e/icons/features/feats/feats.jpg",
    "name": "Superior Sight",
    "permission": {
        "default": 0
    },
    "type": "feat"
}
