{
    "_id": "NFsQOa3ynthYLVj6",
    "data": {
        "actionCategory": {
            "value": ""
        },
        "actionType": {
            "value": "passive"
        },
        "actions": {
            "value": ""
        },
        "description": {
            "chat": "",
            "unidentified": "",
            "value": "<p>Your soul is warded against the power of undeath and plague, as well as that of the evil former psychopomps known as sahkils. You gain a +1 circumstance bonus to saving throws against death effects, disease, and all effects from undead or sahkils. This bonus increases to +2 against an undead or sahkil's death effect or disease.</p>"
        },
        "featType": {
            "value": "ancestry"
        },
        "level": {
            "value": "5"
        },
        "prerequisites": {
            "value": [
                ""
            ]
        },
        "rarity": {
            "value": "common"
        },
        "rules": [],
        "source": {
            "value": ""
        },
        "traits": {
            "rarity": {
                "value": "common"
            },
            "value": [
                "duskwalker"
            ]
        },
        "usage": {
            "value": ""
        }
    },
    "flags": {},
    "img": "systems/pf2e/icons/features/feats/feats.jpg",
    "name": "Ward Against Corruption",
    "permission": {
        "default": 0
    },
    "type": "feat"
}
