{
    "_id": "TsgW87kYudNr6Bfp",
    "data": {
        "actionCategory": {
            "value": ""
        },
        "actionType": {
            "value": "passive"
        },
        "actions": {
            "value": ""
        },
        "description": {
            "chat": "",
            "unidentified": "",
            "value": "<p>You have learned Artokus Kirran's most hidden secrets, granting you the ability to create alchemy infused with the power of wishes. Once per day when you use @Compendium[pf2e.classfeatures.Advanced Alchemy]{Advanced Alchemy} during your daily preparations, you can spend a batch of infused reagents to create a wish vial containing a single common arcane spell of your choice of 8th level or lower. The spell must have a casting time of no more than 3 actions, no Cost, and must be able to target you. Only you can Activate the wish vial, which takes the same number of Interact actions as the spell's casting time and grants you the effects of the spell.</p>"
        },
        "featType": {
            "value": "class"
        },
        "level": {
            "value": "20"
        },
        "prerequisites": {
            "value": [
                ""
            ]
        },
        "rarity": {
            "value": "common"
        },
        "rules": [],
        "source": {
            "value": ""
        },
        "traits": {
            "custom": "",
            "rarity": {
                "value": "rare"
            },
            "selected": {},
            "value": [
                "alchemist"
            ]
        },
        "usage": {
            "value": "held-in-one-hand"
        }
    },
    "flags": {},
    "img": "systems/pf2e/icons/features/feats/feats.jpg",
    "name": "Wish Alchemy",
    "permission": {
        "default": 0
    },
    "type": "feat"
}
