{
    "_id": "OaUt41v2OrQkHpM4",
    "data": {
        "actionCategory": {
            "value": ""
        },
        "actionType": {
            "value": "passive"
        },
        "actions": {
            "value": ""
        },
        "containerId": {
            "value": ""
        },
        "description": {
            "chat": "",
            "unidentified": "",
            "value": "<p><strong>Major Curse:</strong> You become honest to a fault. You constantly suffer the critical failure effect of @Compendium[pf2e.spells-srd.Zone of Truth]{Zone of Truth}. Additionally, you are always offered the worst possible option in a bargain.</p>"
        },
        "featType": {
            "value": "curse"
        },
        "level": {
            "value": "0"
        },
        "prerequisites": {
            "value": ""
        },
        "rarity": {
            "value": "common"
        },
        "source": {
            "value": ""
        },
        "traits": {
            "custom": "",
            "rarity": {
                "value": "common"
            },
            "selected": {},
            "value": []
        },
        "usage": {
            "value": "held-in-one-hand"
        }
    },
    "flags": {},
    "img": "systems/pf2e/icons/deity/Abadar.png",
    "name": "Abadar - Major Curse",
    "permission": {
        "default": 0
    },
    "type": "feat"
}
