{
    "_id": "fV0t8xagcbqwvTpQ",
    "data": {
        "actionCategory": {
            "value": ""
        },
        "actionType": {
            "value": "passive"
        },
        "actions": {
            "value": ""
        },
        "containerId": {
            "value": ""
        },
        "description": {
            "chat": "",
            "unidentified": "",
            "value": "<p><strong>Minor Boon (Single Use):</strong> Pleased by your talent for manipulation, Asmodeus amplifies your skills. Once, when you fail at the Diplomacy check to make a significant or consequential @Compendium[pf2e.actionspf2e.Request]{Request}, you can cast @Compendium[pf2e.spells-srd.Suggestion]{Suggestion} on the target of your @Compendium[pf2e.actionspf2e.Request]{Request}, suggesting the same course of action. This is a divine innate spell.</p>"
        },
        "featType": {
            "value": "deityboon"
        },
        "level": {
            "value": "0"
        },
        "prerequisites": {
            "value": ""
        },
        "rarity": {
            "value": "common"
        },
        "source": {
            "value": ""
        },
        "traits": {
            "custom": "",
            "rarity": {
                "value": "common"
            },
            "selected": {},
            "value": []
        },
        "usage": {
            "value": "held-in-one-hand"
        }
    },
    "flags": {},
    "img": "systems/pf2e/icons/deity/Asmodeus.png",
    "name": "Asmodeus - Minor Boon",
    "permission": {
        "default": 0
    },
    "type": "feat"
}
