{
    "_id": "fV940VM5RCsNwUvA",
    "data": {
        "actionCategory": {
            "value": ""
        },
        "actionType": {
            "value": "passive"
        },
        "actions": {
            "value": ""
        },
        "containerId": {
            "value": ""
        },
        "description": {
            "chat": "",
            "unidentified": "",
            "value": "<p><strong>Major Curse</strong>: You have wronged those unable to obtain revenge for themselves, and Calistria's curse grants their revenge its own life.</p>\n<p>Whenever another creature imagines vengeance upon you but can't pursue that vengeance because you are too powerful, well connected, or otherwise untouchable, a creature of roughly your level manifests out of their imagination and performs their desired revenge.</p>\n<p>Once the revenge is complete or the manifestation is destroyed, the summoned creature vanishes from existence.</p>"
        },
        "featType": {
            "value": "curse"
        },
        "level": {
            "value": "0"
        },
        "prerequisites": {
            "value": ""
        },
        "rarity": {
            "value": "common"
        },
        "source": {
            "value": ""
        },
        "traits": {
            "custom": "",
            "rarity": {
                "value": "common"
            },
            "selected": {},
            "value": []
        },
        "usage": {
            "value": "held-in-one-hand"
        }
    },
    "flags": {},
    "img": "systems/pf2e/icons/deity/Calistria.png",
    "name": "Calistra - Major Curse",
    "permission": {
        "default": 0
    },
    "type": "feat"
}
