{
    "_id": "3u3vav6qfAW6hPKE",
    "data": {
        "actionCategory": {
            "value": ""
        },
        "actionType": {
            "value": "passive"
        },
        "actions": {
            "value": ""
        },
        "containerId": {
            "value": ""
        },
        "description": {
            "chat": "",
            "unidentified": "",
            "value": "<p><strong>Moderate Curse</strong>: Erastil's beasts take a dislike to you. Animals' attitudes toward you are one category worse (friendly instead of helpful, indifferent instead of friendly, and so on).</p>"
        },
        "featType": {
            "value": "curse"
        },
        "level": {
            "value": "0"
        },
        "prerequisites": {
            "value": ""
        },
        "rarity": {
            "value": "common"
        },
        "source": {
            "value": ""
        },
        "traits": {
            "custom": "",
            "rarity": {
                "value": "common"
            },
            "selected": {},
            "value": []
        },
        "usage": {
            "value": "held-in-one-hand"
        }
    },
    "flags": {},
    "img": "systems/pf2e/icons/deity/Erastil.png",
    "name": "Erastil - Moderate Curse",
    "permission": {
        "default": 0
    },
    "type": "feat"
}
