{
    "_id": "uVZrqxtOOutr4Ss9",
    "data": {
        "actionCategory": {
            "value": ""
        },
        "actionType": {
            "value": "passive"
        },
        "actions": {
            "value": ""
        },
        "containerId": {
            "value": ""
        },
        "description": {
            "chat": "",
            "unidentified": "",
            "value": "<p><strong>Minor Boon</strong>: Gozreh grants their guidance while at sea. You are under the constant effects of @Compendium[pf2e.spells-srd.Know Direction]{Know Direction} and become trained in Sailing Lore (or another Lore skill if you are already trained in Sailing Lore).</p>"
        },
        "featType": {
            "value": "deityboon"
        },
        "level": {
            "value": "0"
        },
        "prerequisites": {
            "value": ""
        },
        "rarity": {
            "value": "common"
        },
        "source": {
            "value": ""
        },
        "traits": {
            "custom": "",
            "rarity": {
                "value": "common"
            },
            "selected": {},
            "value": []
        },
        "usage": {
            "value": "held-in-one-hand"
        }
    },
    "flags": {},
    "img": "systems/pf2e/icons/deity/Gozreh.png",
    "name": "Gozreh - Minor Boon",
    "permission": {
        "default": 0
    },
    "type": "feat"
}
