{
    "_id": "V7FYIgphCCkYsEXF",
    "data": {
        "actionCategory": {
            "value": ""
        },
        "actionType": {
            "value": "passive"
        },
        "actions": {
            "value": ""
        },
        "containerId": {
            "value": ""
        },
        "description": {
            "chat": "",
            "unidentified": "",
            "value": "<p><strong>Moderate Curse</strong>: The sun shines its light on everything you say.</p>\n<p>You become unable to tell @Compendium[pf2e.actionspf2e.Lie]{Lies}, and if you attempt to do so, you instead compulsively blurt out the truth on the matter in question. You are still able to withhold information or lie by omission.</p>"
        },
        "featType": {
            "value": "curse"
        },
        "level": {
            "value": "0"
        },
        "prerequisites": {
            "value": ""
        },
        "rarity": {
            "value": "common"
        },
        "source": {
            "value": ""
        },
        "traits": {
            "custom": "",
            "rarity": {
                "value": "common"
            },
            "selected": {},
            "value": []
        },
        "usage": {
            "value": "held-in-one-hand"
        }
    },
    "flags": {},
    "img": "systems/pf2e/icons/deity/Sarenrae.png",
    "name": "Saranrae - Moderate Curse",
    "permission": {
        "default": 0
    },
    "type": "feat"
}
