{
    "_id": "jhixjUJZlCetNRjH",
    "data": {
        "actionCategory": {
            "value": ""
        },
        "actionType": {
            "value": "passive"
        },
        "actions": {
            "value": ""
        },
        "containerId": {
            "value": ""
        },
        "description": {
            "chat": "",
            "unidentified": "",
            "value": "<p><strong>Minor Curse</strong>: You heart churns with remorse. Each day, you are @Compendium[pf2e.conditionitems.Sickened]{Sickened} 1 as a specific misdeed plays out in your mind over and over in guilt.</p>\n<p>You can't remove this condition, though it abates enough for you to quickly eat and drink when necessary. If you make amends or otherwise earnestly pursue redemption for the misdeed, the @Compendium[pf2e.conditionitems.Sickened]{Sickened} condition fades completely that day.</p>"
        },
        "featType": {
            "value": "curse"
        },
        "level": {
            "value": "0"
        },
        "prerequisites": {
            "value": ""
        },
        "rarity": {
            "value": "common"
        },
        "source": {
            "value": ""
        },
        "traits": {
            "custom": "",
            "rarity": {
                "value": "common"
            },
            "selected": {},
            "value": []
        },
        "usage": {
            "value": "held-in-one-hand"
        }
    },
    "flags": {},
    "img": "systems/pf2e/icons/deity/Shelyn.png",
    "name": "Shelyn - Minor Curse",
    "permission": {
        "default": 0
    },
    "type": "feat"
}
