{
    "_id": "HWEgF7Gmoq55VhTL",
    "data": {
        "additionalLanguages": {
            "count": 0,
            "custom": "",
            "value": [
                "amurrun",
                "aquan",
                "boggard",
                "draconic",
                "elven",
                "jotun",
                "sylvan"
            ]
        },
        "boosts": {
            "0": {
                "value": [
                    "str"
                ]
            },
            "1": {
                "value": [
                    "wis"
                ]
            },
            "2": {
                "value": [
                    "str",
                    "dex",
                    "con",
                    "int",
                    "wis",
                    "cha"
                ]
            }
        },
        "description": {
            "chat": "",
            "unidentified": "",
            "value": "<p><em>Lizardfolk are consummate survivors, heirs to empires considered ancient even by the elves.</em></p>\n<hr />\n<p>Lizardfolk move through the societies of other humanoids with the steely reserve of born predators. They have a well-deserved reputation as outstanding rangers and unsentimental fighters. Though lizardfolk have adapted to many different environments, many of them still prefer to remain near bodies of water, using their ability to hold their breath to their advantage. As a result, lizardfolk usually prefer equipment that is not easily damaged by moisture, eschewing leather and metal for gear made of stone, ivory, glass, and bone.</p>\n<h2>You Might...</h2>\n<ul>\n<li>Demonstrate extreme patience, even when pressured to act.</li>\n<li>Hold your people's history in high regard and look to the past for solutions to present problems.</li>\n<li>Strive to adapt perfectly to your environment while also keeping your culture and traditions intact.</li>\n</ul>\n<h2>Others Probably...</h2>\n<ul>\n<li>Assume you are beholden to tradition and have ancient knowledge.</li>\n<li>See you as cold-blooded and callous due to your subdued physical reactions.</li>\n<li>Respect your impressive strength and your knowledge of natural areas.</li>\n</ul>\n<h2>Physical Description</h2>\n<p>Lizardfolk vary depending on their environment, but share toothy snouts and long and powerful tails. Those from temperate or desert regions tend toward gray, green, or brown scales that aid in camouflage, while those from tropical climes are brightly colored. Many sport dorsal spikes or garish neck frills that hint at their clan lineage. Lizardfolk reach physical adulthood at age 15 and live up to 120 years. The average lizardfolk stands 6 to 7 feet tall, but grows throughout their lifetime, gaining strength and size with age.</p>\n<h2>Society</h2>\n<p>Known among themselves as iruxi, lizardfolk are raised communally from the moment they break from their shells. They have an oral tradition stretching back thousands of years, brought to life through epic poems, evocative carvings, and ancestral rites performed among fields of fossilized bone. Lizardfolk are passionate astrologers with one eye on the future. If they seem slow to act, it is because their long history has taught them the value of patience.</p>\n<p>The simple villages most outsiders associate with iruxi are the homes of migrants in outlying regions. True iruxi settlements are often overlooked, as they are partially or mostly submerged in water. These glass and stone complexes bear the mark of every generation of lizardfolk that lived within them, and lizardfolk bones often adorn the walls, as many lizardfolk believe these remains can be animated by ancestral spirits when the residents are in danger.</p>\n<h2>Alignment and Religion</h2>\n<p>Most iruxi are unconcerned with heavy questions of morality and are therefore usually neutral in alignment. Adventuring iruxi who leave their people to travel might have any number of reasons for doing so and can be of any alignment. Iruxi religion plays a large role in their culture, but it is heavily practical, blending animism and ancestor worship with druidic rites. Of the gods, only Gozreh is commonly revered, but lizardfolk may call upon other powers devoted to ancient wyrms, astrology, nature, rivers, and might of arms, from kindly Desna to cruel Hanspur and certain demon lords.</p>\n<h2>Adventurers</h2>\n<p>Some background options are particularly suitable for lizardfolk. Wilderness or martial backgrounds like the animal whisperer, hunter, scout, or warrior are ideal. Living at the margins of human civilization means an iruxi might have grown up as a hardy street urchin, traveled as a nomad or sailor, or found work as a laborer or gladiator. Lizardfolk's ties to the wilderness make them excellent rangers or druids. Their outstanding strength serves them well if they select the barbarian, fighter, or monk classes, though they can also strike from stealth as a rogue. Iruxi also have a strong oral tradition kept alive by lizardfolk bards and sorcerers.</p>\n<h2>Names</h2>\n<p>Lizardfolk names come from their ancient language and tend to be traditional. Names are typically chosen by the clan's astrologer in accordance to omens and which star signs are ascendant when an iruxi egg hatches, though occasionally an iruxi's parents may name a hatchling for an ancestor or a beloved historical hero.</p>\n<h3><span style=\"text-decoration: underline;\">Sample Names</span></h3>\n<p>Arasheg, Barashk, Essaru, Enshuk, Gishkim, Hazi, Inishish, Kutak, Nasha, Shulkuru, Tizkar, Utakish, Zelkekek</p>"
        },
        "flaws": {
            "0": {
                "value": [
                    "int"
                ]
            }
        },
        "hp": 8,
        "items": {
            "ry9ai": {
                "id": "AzGJN1wwLFaLJIeo",
                "img": "systems/pf2e/icons/features/ancestry//aquatic-adaptation.jpg",
                "level": "1",
                "name": "Aquatic Adaptation",
                "pack": "pf2e.ancestryfeatures"
            },
            "xkzsg": {
                "id": "NfkxFWUeG6g41e8w",
                "img": "systems/pf2e/icons/features/ancestry/claws.jpg",
                "level": "1",
                "name": "Claws",
                "pack": "pf2e.ancestryfeatures"
            }
        },
        "languages": {
            "custom": "",
            "value": [
                "common",
                "iruxi"
            ]
        },
        "rarity": {
            "value": "common"
        },
        "rules": [],
        "size": "med",
        "source": {
            "value": ""
        },
        "speed": 25,
        "traits": {
            "rarity": {
                "value": "uncommon"
            },
            "value": [
                "humanoid",
                "lizardfolk"
            ]
        },
        "usage": {
            "value": "held-in-one-hand"
        },
        "vision": "normal"
    },
    "effects": [],
    "flags": {},
    "img": "icons/svg/mystery-man.svg",
    "name": "Lizardfolk",
    "permission": {
        "default": 0
    },
    "type": "ancestry"
}
