{
    "_id": "7z1iY4AaNEAIKuAU",
    "data": {
        "description": {
            "chat": "",
            "unidentified": "",
            "value": "<p>Granted by @Compendium[pf2e.equipment-srd.Antidote (Lesser)]{Antidote (Lesser)}</p>\n<p>Implemented effects:</p>\n<ul>\n<li>+2 item bonus to Fortitude saves against poisons</li>\n</ul>"
        },
        "level": {
            "value": 1
        },
        "rarity": {
            "value": "common"
        },
        "rules": [
            {
                "key": "PF2E.RuleElement.FlatModifier",
                "label": "Antidote Lesser (vs. poison)",
                "predicate": {
                    "all": [
                        "poison"
                    ]
                },
                "selector": "fortitude",
                "type": "item",
                "value": 2
            },
            {
                "key": "PF2E.RuleElement.TokenEffectIcon"
            }
        ],
        "source": {
            "value": ""
        },
        "traits": {
            "value": []
        },
        "usage": {
            "value": "held-in-one-hand"
        }
    },
    "effects": [],
    "flags": {},
    "img": "systems/pf2e/icons/equipment/alchemical-items/alchemical-elixirs/antidote.jpg",
    "name": "Effect: Antidote (Lesser)",
    "permission": {
        "default": 0
    },
    "type": "effect"
}
