{
    "_id": "2C1HuKDQDGFZuv7l",
    "data": {
        "description": {
            "chat": "",
            "unidentified": "",
            "value": "<p>Granted by @Compendium[pf2e.equipment-srd.Boulderhead Bock]{Boulderhead Bock}.</p>\n<p>Automatically applied effects:</p>\n<ul>\n<li>+1 item bonus to saving throws against effects that would make you stunned or stupefied.</li>\n<li>-2 item penalty to Perception&nbsp;</li>\n</ul>"
        },
        "level": {
            "value": 2
        },
        "rarity": {
            "value": "common"
        },
        "rules": [
            {
                "key": "PF2E.RuleElement.FlatModifier",
                "label": "Boulderhead Bock (vs. stunned/stupefied)",
                "predicate": {
                    "any": [
                        "stunned",
                        "stupefied"
                    ]
                },
                "selector": "saving-throw",
                "type": "item",
                "value": 1
            },
            {
                "key": "PF2E.RuleElement.FlatModifier",
                "selector": "perception",
                "type": "item",
                "value": -2
            },
            {
                "key": "PF2E.RuleElement.TokenEffectIcon"
            }
        ],
        "source": {
            "value": ""
        },
        "traits": {
            "value": []
        },
        "usage": {
            "value": "held-in-one-hand"
        }
    },
    "effects": [],
    "flags": {
        "core": {
            "sourceId": "Item.zPQxt5JroLsUo3U2"
        }
    },
    "img": "systems/pf2e/icons/equipment/alchemical-items/alchemical-elixirs/boulderhead-bock.jpg",
    "name": "Effect: Boulderhead Bock",
    "permission": {
        "default": 0
    },
    "type": "effect"
}
