{
    "_id": "Zb8RYgmzCI6fQE0o",
    "data": {
        "description": {
            "chat": "",
            "unidentified": "",
            "value": "<p>Granted by @Compendium[pf2e.gmg-srd.Throne]{Throne}&nbsp;from the&nbsp;@Compendium[pf2e.equipment-srd.Deck of Many Things]{Deck of Many Things}</p>\n<p>Automatically applied effects:</p>\n<ul>\n<li>a +4 status bonus to Diplomacy.</li>\n</ul>\n<p>&nbsp;</p>"
        },
        "level": {
            "value": 0
        },
        "rarity": {
            "value": "common"
        },
        "rules": [
            {
                "key": "PF2E.RuleElement.FlatModifier",
                "label": "Throne Card",
                "selector": "diplomacy",
                "type": "status",
                "value": 4
            }
        ],
        "source": {
            "value": ""
        },
        "traits": {
            "value": []
        },
        "usage": {
            "value": "held-in-one-hand"
        }
    },
    "effects": [],
    "flags": {
        "core": {
            "sourceId": "Item.5EyhEO24vgV7ostd"
        }
    },
    "img": "systems/pf2e/icons/equipment/held-items/rune-card.jpg",
    "name": "Effect: Throne Card",
    "permission": {
        "default": 0
    },
    "type": "effect"
}
