{
    "_id": "b9DTIJyBT8kvIBpj",
    "data": {
        "description": {
            "chat": "",
            "unidentified": "",
            "value": "<p>Granted by @Compendium[pf2e.equipment-srd.Stone Body Mutagen (Greater)]{Stone Body Mutagen (Greater)}</p>\n<p>Implemented effects:</p>\n<ul>\n<li>-2 penalty to Reflex saves</li>\n<li>-10 foot penalty to Speed</li>\n</ul>\n<p>Unimplemented effects:</p>\n<ul>\n<li>Resistance 10 to physical damage (except bludgeoning)</li>\n</ul>"
        },
        "level": {
            "value": 15
        },
        "rarity": {
            "value": "common"
        },
        "rules": [
            {
                "key": "PF2E.RuleElement.FlatModifier",
                "label": "Stone Body Mutagen (Greater)",
                "selector": "reflex",
                "type": "untyped",
                "value": -2
            },
            {
                "key": "PF2E.RuleElement.TokenEffectIcon"
            },
            {
                "key": "PF2E.RuleElement.FlatModifier",
                "selector": "speed",
                "value": -10
            }
        ],
        "source": {
            "value": ""
        },
        "traits": {
            "value": []
        },
        "usage": {
            "value": "held-in-one-hand"
        }
    },
    "effects": [],
    "flags": {},
    "img": "systems/pf2e/icons/equipment/alchemical-items/alchemical-elixirs/stone-body-mutagen.jpg",
    "name": "Effect: Stone Body Mutagen (Greater)",
    "permission": {
        "default": 0
    },
    "type": "effect"
}
