{
    "_id": "qczCKdg47eAmCOUD",
    "data": {
        "actionCategory": {
            "value": ""
        },
        "actionType": {
            "value": "passive"
        },
        "actions": {
            "value": ""
        },
        "description": {
            "chat": "",
            "unidentified": "",
            "value": "<p>Instead of specializing narrowly in an arcane school, you can become a universalist wizard-by studying all the schools equally, you devote yourself to understanding the full breadth of the arcane arts. For each level of spell you can cast, you can use Drain Bonded item once per day to recall a spell of that level (instead of using it only once per day in total). You gain an extra wizard class feat, and you add one 1st-level spell of your choice to your spellbook.</p>"
        },
        "featType": {
            "value": "classfeature"
        },
        "level": {
            "value": "1"
        },
        "prerequisites": {
            "value": ""
        },
        "rarity": {
            "value": "common"
        },
        "source": {
            "value": ""
        },
        "traits": {
            "custom": "",
            "value": [
                "wizard"
            ]
        },
        "usage": {
            "value": "held-in-one-hand"
        }
    },
    "flags": {},
    "img": "systems/pf2e/icons/features/classes/universalist.jpg",
    "name": "Arcane School: Universalist",
    "permission": {
        "default": 0
    },
    "type": "feat"
}
