{
    "_id": "z5G0o04uV65zyxDB",
    "data": {
        "actionCategory": {
            "value": ""
        },
        "actionType": {
            "value": "passive"
        },
        "actions": {
            "value": ""
        },
        "description": {
            "chat": "",
            "unidentified": "",
            "value": "<p>You've mastered your arsenal of champion techniques and divine spells. Your proficiency ranks for your champion class DC and for divine spell attack rolls and spell DCs increase to master.</p>"
        },
        "featType": {
            "value": "classfeature"
        },
        "level": {
            "value": "17"
        },
        "prerequisites": {
            "value": ""
        },
        "rarity": {
            "value": "common"
        },
        "source": {
            "value": ""
        },
        "traits": {
            "custom": "",
            "value": [
                "champion"
            ]
        },
        "usage": {
            "value": "held-in-one-hand"
        }
    },
    "flags": {},
    "img": "systems/pf2e/icons/features/classes/champion-mastery.jpg",
    "name": "Champion Mastery",
    "permission": {
        "default": 0
    },
    "type": "feat"
}
