{
    "_id": "ZZzLMOUAtBVgV1DF",
    "data": {
        "actionCategory": {
            "value": ""
        },
        "actionType": {
            "value": "passive"
        },
        "actions": {
            "value": ""
        },
        "description": {
            "chat": "",
            "unidentified": "",
            "value": "<p>You are a cleric of the cloth, focusing on divine magic and your connection to your deity's domains.<br /><br /><strong>First Doctrine (1st):</strong>You gain the @Compendium[pf2e.feats-srd.Domain Initiate]{Domain Initiate} cleric feat.<br /><strong>Second Doctrine (3rd):</strong>Your proficiency rank for Fortitude saves increases to expert.<br /><strong>Third Doctrine (7th):</strong>Your proficiency ranks for divine spell attack rolls and spell DCs increase to expert.<br /><strong>Fourth Doctrine (11th):</strong>You gain expert proficiency with your deity's favored weapon. When you critically succeed at an attack roll using that weapon, you apply the weapon's critical specialization effect; use your divine spell DC if necessary.<br /><strong>Fifth Doctrine (15th):</strong>Your proficiency ranks for divine spell attack rolls and spell DCs increase to master.<br /><strong>Final Doctrine (19th):</strong>Your proficiency ranks for divine spell attack rolls and spell DCs increase to legendary.</p>"
        },
        "featType": {
            "value": "classfeature"
        },
        "level": {
            "value": "1"
        },
        "prerequisites": {
            "value": ""
        },
        "rarity": {
            "value": "common"
        },
        "source": {
            "value": ""
        },
        "traits": {
            "custom": "",
            "value": [
                "cleric"
            ]
        },
        "usage": {
            "value": "held-in-one-hand"
        }
    },
    "flags": {},
    "img": "systems/pf2e/icons/features/classes/cloistered-cleric.jpg",
    "name": "Cloistered Cleric",
    "permission": {
        "default": 0
    },
    "type": "feat"
}
