{
    "_id": "6YIyycFN795wja1b",
    "data": {
        "actionCategory": {
            "value": ""
        },
        "actionType": {
            "value": "passive"
        },
        "actions": {
            "value": ""
        },
        "description": {
            "chat": "",
            "unidentified": "",
            "value": "<p>Your proficiency ranks for occult spell attack rolls and spell DCs increase to expert.</p>"
        },
        "featType": {
            "value": "classfeature"
        },
        "level": {
            "value": "7"
        },
        "prerequisites": {
            "value": ""
        },
        "rarity": {
            "value": "common"
        },
        "source": {
            "value": ""
        },
        "traits": {
            "custom": "",
            "rarity": {
                "value": "common"
            },
            "value": [
                "bard"
            ]
        },
        "usage": {
            "value": "held-in-one-hand"
        }
    },
    "flags": {},
    "img": "systems/pf2e/icons/features/classes/expert-spellcaster.jpg",
    "name": "Expert Spellcaster (Bard)",
    "permission": {
        "default": 0
    },
    "type": "feat"
}
