{
    "_id": "LzB6X9vOaq3wq1FZ",
    "data": {
        "actionCategory": {
            "value": ""
        },
        "actionType": {
            "value": "passive"
        },
        "actions": {
            "value": ""
        },
        "description": {
            "chat": "",
            "unidentified": "",
            "value": "<p>You can defy fate and continue fighting as long as you have divine energy. You gain the Hero's Defiance devotion spell.  </p>"
        },
        "featType": {
            "value": "classfeature"
        },
        "level": {
            "value": "19"
        },
        "prerequisites": {
            "value": ""
        },
        "rarity": {
            "value": "common"
        },
        "source": {
            "value": ""
        },
        "traits": {
            "custom": "",
            "value": [
                "champion"
            ]
        },
        "usage": {
            "value": "held-in-one-hand"
        }
    },
    "flags": {},
    "img": "systems/pf2e/icons/features/classes/heros-defiance.jpg",
    "name": "Hero's Defiance",
    "permission": {
        "default": 0
    },
    "type": "feat"
}
