{
    "_id": "F5VenhIQMDkeGvmV",
    "data": {
        "actionCategory": {
            "value": ""
        },
        "actionType": {
            "value": "passive"
        },
        "actions": {
            "value": ""
        },
        "description": {
            "chat": "",
            "unidentified": "",
            "value": "<p>You've learned fighting techniques that apply to all armaments, and you've developed unparalleled skill with your favorite weapons. Your proficiency ranks for simple and martial weapons and unarmed attacks increase to master. Your proficiency rank for advanced weapons increases to expert. You can select one weapon group and increase your proficiency ranks to legendary for all simple and martial weapons in that weapon group, and to master for all advanced weapons in that weapon group.</p>"
        },
        "featType": {
            "value": "classfeature"
        },
        "level": {
            "value": "13"
        },
        "prerequisites": {
            "value": ""
        },
        "rarity": {
            "value": "common"
        },
        "source": {
            "value": ""
        },
        "traits": {
            "custom": "",
            "value": [
                "fighter"
            ]
        },
        "usage": {
            "value": "held-in-one-hand"
        }
    },
    "flags": {},
    "img": "systems/pf2e/icons/features/classes/weapon-legend.jpg",
    "name": "Weapon Legend",
    "permission": {
        "default": 0
    },
    "type": "feat"
}
