{
    "_id": "uJXs4M6IeixfPBLc",
    "data": {
        "ability": {
            "value": ""
        },
        "area": {
            "value": ""
        },
        "areasize": {
            "value": ""
        },
        "components": {
            "value": "somatic"
        },
        "cost": {
            "value": ""
        },
        "damage": {
            "applyMod": false,
            "value": ""
        },
        "damageType": {
            "value": ""
        },
        "description": {
            "chat": "",
            "unidentified": "",
            "value": "<p>You adopt the stance of clinging shadows. You can make shadow grasp @Compendium[pf2e.actionspf2e.Strike]{Strikes}. These deal [[/r 1d4 #negative]] negative damage; are in the brawling group; and have the agile, grapple, reach, and unarmed traits.</p>\n<p>While in clinging shadows stance, you gain a +2 circumstance bonus to Athletics checks to @Compendium[pf2e.actionspf2e.Grapple]{Grapple}, and to the DC for creatures to @Compendium[pf2e.actionspf2e.Escape]{Escape} from you.</p>\n<p>@Compendium[pf2e.spell-effects.Stance: Clinging Shadows Stance]{Stance: Clinging Shadows Stance}</p>"
        },
        "duration": {
            "value": "until you leave the stance"
        },
        "level": {
            "value": 4
        },
        "location": {
            "value": ""
        },
        "materials": {
            "value": ""
        },
        "prepared": {
            "value": ""
        },
        "primarycheck": {
            "value": ""
        },
        "range": {
            "value": ""
        },
        "rarity": {
            "value": "common"
        },
        "rules": [],
        "save": {
            "basic": "",
            "value": ""
        },
        "scaling": {
            "formula": "",
            "mode": "none"
        },
        "school": {
            "value": "evo"
        },
        "secondarycasters": {
            "value": ""
        },
        "secondarycheck": {
            "value": ""
        },
        "source": {
            "value": ""
        },
        "spellCategorie": {
            "value": "focus"
        },
        "spellCategory": {
            "value": ""
        },
        "spellType": {
            "value": "utility"
        },
        "sustained": {
            "value": false
        },
        "target": {
            "value": ""
        },
        "time": {
            "value": "1"
        },
        "traditions": {
            "value": []
        },
        "traits": {
            "custom": "",
            "rarity": {
                "value": "uncommon"
            },
            "value": [
                "evocation",
                "monk",
                "shadow",
                "stance"
            ]
        },
        "usage": {
            "value": "held-in-one-hand"
        }
    },
    "effects": [],
    "flags": {},
    "img": "systems/pf2e/icons/spells/clinging-shadows-stance.jpg",
    "name": "Clinging Shadows Stance",
    "permission": {
        "default": 0
    },
    "type": "spell"
}
