{
    "_id": "wjJW9hWY5CkkMvY5",
    "data": {
        "ability": {
            "value": ""
        },
        "area": {
            "areaType": "emanation",
            "value": 15
        },
        "areasize": {
            "value": "15-foot emanation centered on you"
        },
        "components": {
            "value": "somatic, verbal"
        },
        "cost": {
            "value": ""
        },
        "damage": {
            "applyMod": false,
            "value": "2d6"
        },
        "damageType": {
            "value": "cold"
        },
        "description": {
            "chat": "",
            "unidentified": "",
            "value": "<p>You supercool the nearby air, forming a cloud of dancing ice crystals in an emanation around you. A creature other than you that enters the area or ends its turn within the area takes 2d6 cold damage. A creature can take this damage only once per turn. The crystals scatter and refract light; if a light effect enters diamond dust's area, any creatures that effect goes on to affect gain a +2 status bonus to AC and saves against it. While the spell persists, you can activate or deactivate this aura by using a single action, which has the concentrate trait. You can Dismiss this spell.</p>\n<hr />\n<p><strong>Heightened (+2)</strong> The damage increases by 1d6.</p>"
        },
        "duration": {
            "value": "1 minute"
        },
        "level": {
            "value": 4
        },
        "location": {
            "value": ""
        },
        "materials": {
            "value": ""
        },
        "prepared": {
            "value": ""
        },
        "primarycheck": {
            "value": ""
        },
        "range": {
            "value": ""
        },
        "rarity": {
            "value": "common"
        },
        "rules": [],
        "save": {
            "basic": "basic",
            "value": "fortitude"
        },
        "scaling": {
            "formula": "1d6",
            "mode": "level2"
        },
        "school": {
            "value": "evo"
        },
        "secondarycasters": {
            "value": ""
        },
        "secondarycheck": {
            "value": ""
        },
        "source": {
            "value": ""
        },
        "spellCategorie": {
            "value": "focus"
        },
        "spellCategory": {
            "value": ""
        },
        "spellType": {
            "value": "save"
        },
        "sustained": {
            "value": false
        },
        "target": {
            "value": ""
        },
        "time": {
            "value": "2"
        },
        "traditions": {
            "custom": "",
            "value": [
                "focus"
            ]
        },
        "traits": {
            "custom": "",
            "rarity": {
                "value": "uncommon"
            },
            "value": [
                "cleric",
                "cold",
                "evocation"
            ]
        },
        "usage": {
            "value": "held-in-one-hand"
        }
    },
    "effects": [],
    "flags": {},
    "img": "systems/pf2e/icons/spells/diamond-dust.jpg",
    "name": "Diamond Dust",
    "permission": {
        "default": 0
    },
    "type": "spell"
}
