{
    "_id": "fAlzXtQAASaJx0mY",
    "data": {
        "ability": {
            "value": ""
        },
        "area": {
            "value": ""
        },
        "areasize": {
            "value": ""
        },
        "components": {
            "value": "Somatic"
        },
        "cost": {
            "value": ""
        },
        "damage": {
            "applyMod": false,
            "value": ""
        },
        "damageType": {
            "value": ""
        },
        "description": {
            "chat": "",
            "unidentified": "",
            "value": "<p>You temporarily bolster the target's vitality. The target gains fast healing equal to double the spell's level.</p>"
        },
        "duration": {
            "value": "4 rounds"
        },
        "level": {
            "value": 1
        },
        "location": {
            "value": "gj8uSdGt5Fbk1fGz"
        },
        "materials": {
            "value": ""
        },
        "prepared": {
            "value": ""
        },
        "primarycheck": {
            "value": ""
        },
        "range": {
            "value": "30 feet"
        },
        "rarity": {
            "value": "common"
        },
        "rules": [],
        "save": {
            "basic": "",
            "value": ""
        },
        "scaling": {
            "formula": "",
            "mode": "none"
        },
        "school": {
            "value": "nec"
        },
        "secondarycasters": {
            "value": ""
        },
        "secondarycheck": {
            "value": ""
        },
        "source": {
            "value": ""
        },
        "spellCategorie": {
            "value": "focus"
        },
        "spellCategory": {
            "value": ""
        },
        "spellType": {
            "value": "heal"
        },
        "sustained": {
            "value": false
        },
        "target": {
            "value": "1 creature"
        },
        "time": {
            "value": "1"
        },
        "traditions": {
            "value": []
        },
        "traits": {
            "custom": "Hex",
            "rarity": {
                "value": "uncommon"
            },
            "selected": {
                "custom": "",
                "necromancy": "Necromancy",
                "witch": "Witch"
            },
            "value": [
                "healing",
                "necromancy",
                "witch",
                "hex"
            ]
        },
        "usage": {
            "value": "held-in-one-hand"
        }
    },
    "effects": [],
    "flags": {},
    "img": "systems/pf2e/icons/spells/life-boost.jpg",
    "name": "Life Boost",
    "permission": {
        "default": 0
    },
    "type": "spell"
}
