{
    "_id": "pwzdSlJgYqN7bs2w",
    "data": {
        "ability": {
            "label": "Spellcasting Ability",
            "type": "String",
            "value": ""
        },
        "area": {
            "areaType": "",
            "label": "Area",
            "type": "String",
            "value": null
        },
        "areasize": {
            "value": ""
        },
        "components": {
            "label": "Spell Components",
            "type": "String",
            "value": "somatic, verbal"
        },
        "cost": {
            "label": "Cost",
            "type": "String",
            "value": ""
        },
        "damage": {
            "applyMod": false,
            "label": "Spell Damage",
            "type": "String",
            "value": ""
        },
        "damageType": {
            "label": "Damage Type",
            "type": "String",
            "value": ""
        },
        "description": {
            "chat": "",
            "label": "Description",
            "type": "String",
            "unidentified": "",
            "value": "<p>You create a single magical hand, either invisible or ghostlike, that grasps the target object and moves it slowly up to 20 feet. Because you're levitating the object, you can move it in any direction. When you Sustain the Spell, you can move the object an additional 20 feet. If the object is in the air when the spell ends, the object falls.</p>\n<hr />\n<p><strong>Heightened (3rd)</strong> You can target an unattended object with a Bulk of 1 or less.</p>\n<p><strong>Heightened (5th)</strong> The range increases to 60 feet, and you can target an unattended object with a Bulk of 1 or less.</p>\n<p><strong>Heightened (7th)</strong> The range increases to 60 feet, and you can target an unattended object with a Bulk of 2 or less.</p>"
        },
        "duration": {
            "label": "Duration",
            "type": "String",
            "value": "sustained"
        },
        "level": {
            "label": "Spell Level",
            "type": "Number",
            "value": 0
        },
        "location": {
            "label": "Spellcasting Entry Location",
            "type": "String",
            "value": ""
        },
        "materials": {
            "label": "Materials",
            "type": "String",
            "value": ""
        },
        "prepared": {
            "label": "Prepared Spell",
            "type": "String",
            "value": ""
        },
        "primarycheck": {
            "value": ""
        },
        "range": {
            "label": "Range",
            "type": "String",
            "value": "30 feet"
        },
        "rarity": {
            "value": "common"
        },
        "rules": [],
        "save": {
            "basic": "",
            "label": "Saving Throw",
            "type": "String",
            "value": ""
        },
        "scaling": {
            "formula": "",
            "mode": "none"
        },
        "school": {
            "label": "Spell School",
            "type": "String",
            "value": "evo"
        },
        "secondarycasters": {
            "value": ""
        },
        "secondarycheck": {
            "value": ""
        },
        "source": {
            "label": "Source",
            "type": "String",
            "value": "https://2e.aonprd.com/Spells.aspx?ID=177"
        },
        "spellCategorie": {
            "value": "spell"
        },
        "spellCategory": {
            "value": ""
        },
        "spellType": {
            "label": "Spell Type",
            "type": "String",
            "value": "utility"
        },
        "sustained": {
            "label": "Can be Sustained",
            "type": "Boolean",
            "value": false
        },
        "target": {
            "label": "Target",
            "type": "String",
            "value": "1 unattended object of light Bulk or less"
        },
        "time": {
            "label": "Casting Time",
            "type": "String",
            "value": "2"
        },
        "traditions": {
            "label": "Spell Traditions",
            "type": "String",
            "value": [
                "arcane",
                "occult"
            ]
        },
        "traits": {
            "label": "Spell Traits",
            "rarity": {
                "value": "common"
            },
            "type": "String",
            "value": [
                "cantrip",
                "evocation"
            ]
        },
        "usage": {
            "value": "held-in-one-hand"
        }
    },
    "effects": [],
    "flags": {},
    "img": "systems/pf2e/icons/spells/mage-hand.jpg",
    "name": "Mage Hand",
    "permission": {
        "default": 0
    },
    "type": "spell"
}
