{
    "_id": "ZXwxs5tRjEGrjAJT",
    "data": {
        "ability": {
            "label": "Spellcasting Ability",
            "type": "String",
            "value": ""
        },
        "area": {
            "areaType": "",
            "label": "Area",
            "type": "String",
            "value": null
        },
        "areasize": {
            "value": ""
        },
        "components": {
            "label": "Spell Components",
            "type": "String",
            "value": "somatic, verbal"
        },
        "cost": {
            "label": "Cost",
            "type": "String",
            "value": ""
        },
        "damage": {
            "applyMod": false,
            "label": "Spell Damage",
            "type": "String",
            "value": ""
        },
        "damageType": {
            "label": "Damage Type",
            "type": "String",
            "value": ""
        },
        "description": {
            "chat": "",
            "label": "Description",
            "type": "String",
            "unidentified": "",
            "value": "<p><span>The primal power of the world flows through you. You transform into an incarnation of nature, either a green man or a kaiju. Your battle form is Medium for a green man or Gargantuan (30-foot-by-30-foot space) for a kaiju. You must have enough space to expand into or the spell is lost. While in this form, you gain the plant trait (for a green man) or the beast trait (for a kaiju). You can Dismiss the spell.<br /><br />You gain the following statistics and abilities regardless of which battle form you choose: </span></p>\n<ul>\n<li>AC = 25 + your level. Ignore your armor's check penalty and Speed reduction.</li>\n<li>30 temporary Hit Points.</li>\n<li>Darkvision.</li>\n<li>One or more attacks specific to the battle form you choose, which are the only attacks you can use. You're trained with them. Your attack modifier is +34, and you use the listed damage. These attacks are Strength based (for the purpose of the @Compendium[pf2e.conditionitems.Enfeebled]{Enfeebled} condition, for example). If your unarmed attack modifier is higher, you can use it instead.</li>\n<li>Athletics modifier of +36, unless your own modifier is higher.</li>\n</ul>\n<p> You also gain specific abilities based on the type of incarnation you choose:</p>\n<ul>\n<li><strong>Green Man</strong> Speed 40 feet, climb Speed 40 feet; <strong>Melee</strong> <span style=\"font-family: 'Pathfinder2eActions'; font-size: 1.8em; display: inline;\">A</span> vines (reach 30 feet, versatile P), <strong>Damage</strong> 6d8+12 bludgeoning; <strong>Ranged</strong> <span style=\"font-family: 'Pathfinder2eActions'; font-size: 1.8em; display: inline;\">A</span> thorns (range 100 feet), <strong>Damage</strong> 6d6+6 piercing; <strong>Green Caress</strong> (aura, primal, transmutation) 60 feet. Enemies other than plants must succeed at a Fortitude save against your spell DC or become @Compendium[pf2e.conditionitems.Clumsy]{Clumsy} 1 for 1 round Clumsy 2 on a critical failure).</li>\n<li><strong>Kaiju</strong> Speed 50 feet; resistance 5 to physical damage; <strong>Melee</strong> <span style=\"font-family: 'Pathfinder2eActions'; font-size: 1.8em; display: inline;\">A</span> jaws (reach 30 feet), <strong>Damage</strong> 6d10+10 piercing; <strong>Melee</strong> <span style=\"font-family: 'Pathfinder2eActions'; font-size: 1.8em; display: inline;\">A</span> claws (agile, reach 30 feet), <strong>Damage</strong> 6d8+8 slashing; <strong>Melee</strong> <span style=\"font-family: 'Pathfinder2eActions'; font-size: 1.8em; display: inline;\">A</span> foot (agile, reach 15 feet), <strong>Damage</strong> 6d6+10 bludgeoning; <strong>Unstoppable</strong> You are immune to being @Compendium[pf2e.conditionitems.Immobilized]{Immobilized} and ignore difficult terrain and greater difficult terrain; <strong>Trample<span style=\"font-family: 'Pathfinder2eActions'; font-size: 1.8em; display: inline;\">T</span></strong> You move up to double your Speed and move through the spaces of Huge or smaller creatures, trampling each creature whose space you enter. A trampled creature takes foot damage with a basic Reflex save against your spell DC.</li>\n</ul>"
        },
        "duration": {
            "label": "Duration",
            "type": "String",
            "value": "1 minute"
        },
        "level": {
            "label": "Spell Level",
            "type": "Number",
            "value": 10
        },
        "location": {
            "label": "Spellcasting Entry Location",
            "type": "String",
            "value": ""
        },
        "materials": {
            "label": "Materials",
            "type": "String",
            "value": ""
        },
        "prepared": {
            "label": "Prepared Spell",
            "type": "String",
            "value": ""
        },
        "primarycheck": {
            "value": ""
        },
        "range": {
            "label": "Range",
            "type": "String",
            "value": ""
        },
        "rarity": {
            "value": "common"
        },
        "rules": [],
        "save": {
            "basic": "",
            "label": "Saving Throw",
            "type": "String",
            "value": ""
        },
        "scaling": {
            "formula": "",
            "mode": "none"
        },
        "school": {
            "label": "Spell School",
            "type": "String",
            "value": "trs"
        },
        "secondarycasters": {
            "value": ""
        },
        "secondarycheck": {
            "value": ""
        },
        "source": {
            "label": "Source",
            "type": "String",
            "value": "https://2e.aonprd.com/Spells.aspx?ID=204"
        },
        "spellCategorie": {
            "value": "spell"
        },
        "spellCategory": {
            "value": ""
        },
        "spellType": {
            "label": "Spell Type",
            "type": "String",
            "value": "utility"
        },
        "sustained": {
            "label": "Can be Sustained",
            "type": "Boolean",
            "value": false
        },
        "target": {
            "label": "Target",
            "type": "String",
            "value": ""
        },
        "time": {
            "label": "Casting Time",
            "type": "String",
            "value": "2"
        },
        "traditions": {
            "label": "Spell Traditions",
            "type": "String",
            "value": [
                "primal"
            ]
        },
        "traits": {
            "label": "Spell Traits",
            "rarity": {
                "value": "common"
            },
            "type": "String",
            "value": [
                "polymorph",
                "transmutation"
            ]
        },
        "usage": {
            "value": "held-in-one-hand"
        }
    },
    "effects": [],
    "flags": {},
    "img": "systems/pf2e/icons/spells/nature-incarnate.jpg",
    "name": "Nature Incarnate",
    "permission": {
        "default": 0
    },
    "type": "spell"
}
