{
    "_id": "pmP8HhXvvEKP3LqU",
    "data": {
        "ability": {
            "label": "Spellcasting Ability",
            "type": "String",
            "value": ""
        },
        "area": {
            "areaType": "",
            "label": "Area",
            "type": "String",
            "value": null
        },
        "areasize": {
            "value": ""
        },
        "components": {
            "label": "Spell Components",
            "type": "String",
            "value": "somatic, verbal"
        },
        "cost": {
            "label": "Cost",
            "type": "String",
            "value": ""
        },
        "damage": {
            "applyMod": false,
            "label": "Spell Damage",
            "type": "String",
            "value": ""
        },
        "damageType": {
            "label": "Damage Type",
            "type": "String",
            "value": ""
        },
        "description": {
            "chat": "",
            "label": "Description",
            "type": "String",
            "unidentified": "",
            "value": "<p><span>Summoning the power of the natural world, you transform the targets into a herd of mammoths, and they each assume a Huge battle form. Each target must have enough space to expand into or the spell fails for that target. Each target gains the animal trait. Each target can Dismiss the spell's effects on themself. Each target gains the following while transformed: </span></p>\n<ul>\n<li>AC = 22 + the target's level. Ignore any armor check penalty and Speed reduction.</li>\n<li>20 temporary Hit Points.</li>\n<li>Speed 40 feet.</li>\n<li>Low-light vision.</li>\n<li>The following unarmed melee attacks, which are the only attacks the target can use. They're trained with them. When attacking with these attacks, the target uses their attack modifier with the proficiency and item bonuses of their most favorable weapon or unarmed Strike, and the damage is listed for each attack. These attacks are Strength based (for the purpose of the @Compendium[pf2e.conditionitems.Enfeebled]{Enfeebled} condition, for example). If the target's unarmed attack modifier is higher, they can use it instead. <strong>Melee</strong> <span style=\"font-family: 'Pathfinder2eActions'; font-size: 1.8em; display: inline;\">A</span> tusk (reach 15 feet), <strong>Damage</strong> 4d8+19 piercing; <strong>Melee</strong> <span style=\"font-family: 'Pathfinder2eActions'; font-size: 1.8em; display: inline;\">A</span> trunk (agile, reach 15 feet), <strong>Damage</strong> 4d6+16 bludgeoning; <strong>Melee</strong> <span style=\"font-family: 'Pathfinder2eActions'; font-size: 1.8em; display: inline;\">A</span> foot (agile, reach 15 feet), <strong>Damage</strong> 4d6+13 bludgeoning.</li>\n<li>Athletics modifier of +30, unless the target's own modifier is higher. <span style=\"font-family: 'Pathfinder2eActions'; font-size: 1.8em; display: inline;\">T</span> You move up to twice your Speed and move through the space of Large or smaller creatures, trampling each creature whose space you enter. A trampled creature takes damage from its foot Strike based on a basic Reflex save (DC = 19 + the target's level).</li>\n</ul>"
        },
        "duration": {
            "label": "Duration",
            "type": "String",
            "value": "1 minute"
        },
        "level": {
            "label": "Spell Level",
            "type": "Number",
            "value": 10
        },
        "location": {
            "label": "Spellcasting Entry Location",
            "type": "String",
            "value": ""
        },
        "materials": {
            "label": "Materials",
            "type": "String",
            "value": ""
        },
        "prepared": {
            "label": "Prepared Spell",
            "type": "String",
            "value": ""
        },
        "primarycheck": {
            "value": ""
        },
        "range": {
            "label": "Range",
            "type": "String",
            "value": "30 feet"
        },
        "rarity": {
            "value": "common"
        },
        "rules": [],
        "save": {
            "basic": "",
            "label": "Saving Throw",
            "type": "String",
            "value": ""
        },
        "scaling": {
            "formula": "",
            "mode": "none"
        },
        "school": {
            "label": "Spell School",
            "type": "String",
            "value": "trs"
        },
        "secondarycasters": {
            "value": ""
        },
        "secondarycheck": {
            "value": ""
        },
        "source": {
            "label": "Source",
            "type": "String",
            "value": "https://2e.aonprd.com/Spells.aspx?ID=230"
        },
        "spellCategorie": {
            "value": "spell"
        },
        "spellCategory": {
            "value": ""
        },
        "spellType": {
            "label": "Spell Type",
            "type": "String",
            "value": "utility"
        },
        "sustained": {
            "label": "Can be Sustained",
            "type": "Boolean",
            "value": false
        },
        "target": {
            "label": "Target",
            "type": "String",
            "value": "you and up to 5 willing targets"
        },
        "time": {
            "label": "Casting Time",
            "type": "String",
            "value": "2"
        },
        "traditions": {
            "label": "Spell Traditions",
            "type": "String",
            "value": [
                "primal"
            ]
        },
        "traits": {
            "label": "Spell Traits",
            "rarity": {
                "value": "common"
            },
            "type": "String",
            "value": [
                "polymorph",
                "transmutation"
            ]
        },
        "usage": {
            "value": "held-in-one-hand"
        }
    },
    "effects": [],
    "flags": {},
    "img": "systems/pf2e/icons/spells/primal-herd.jpg",
    "name": "Primal Herd",
    "permission": {
        "default": 0
    },
    "type": "spell"
}
