{
    "_id": "pZc8ZwtsyWnxUUW0",
    "data": {
        "ability": {
            "value": ""
        },
        "area": {
            "value": ""
        },
        "areasize": {
            "value": ""
        },
        "components": {
            "value": ""
        },
        "cost": {
            "value": "faerie circle ingredients worth a total value of 1 gp × the spell level × the target's level"
        },
        "damage": {
            "applyMod": false,
            "value": ""
        },
        "damageType": {
            "value": ""
        },
        "description": {
            "chat": "",
            "unidentified": "",
            "value": "<p><span>This functions as @Compendium[pf2e.spells-srd.Planar Ally]{Planar Ally} except you craft a faerie circle and call an animal, beast, fey, fungus, or plant from within 100 miles.</span></p>"
        },
        "duration": {
            "value": "see text"
        },
        "level": {
            "value": 6
        },
        "location": {
            "value": ""
        },
        "materials": {
            "value": ""
        },
        "prepared": {
            "value": ""
        },
        "primarycheck": {
            "value": "Nature (master)"
        },
        "range": {
            "value": "100 miles"
        },
        "rarity": {
            "value": "common"
        },
        "rules": [],
        "save": {
            "basic": "",
            "value": ""
        },
        "scaling": {
            "formula": "",
            "mode": "none"
        },
        "school": {
            "value": "abj"
        },
        "secondarycasters": {
            "value": "4"
        },
        "secondarycheck": {
            "value": "Crafting, Diplomacy, Survival"
        },
        "source": {
            "value": ""
        },
        "spellCategorie": {
            "value": "ritual"
        },
        "spellCategory": {
            "value": ""
        },
        "spellType": {
            "value": "utility"
        },
        "sustained": {
            "value": false
        },
        "target": {
            "value": "1 animal, beast, fey, fungus, or plant"
        },
        "time": {
            "value": "1 day"
        },
        "traditions": {
            "value": []
        },
        "traits": {
            "custom": "",
            "rarity": {
                "value": "uncommon"
            },
            "value": [
                "abjuration",
                "conjuration"
            ]
        },
        "usage": {
            "value": "held-in-one-hand"
        }
    },
    "effects": [],
    "flags": {},
    "img": "systems/pf2e/icons/spells/primal-call.jpg",
    "name": "Primal Call",
    "permission": {
        "default": 0
    },
    "type": "spell"
}
