{
    "_id": "ayRXv0wQH00TTNZe",
    "data": {
        "ability": {
            "label": "Spellcasting Ability",
            "type": "String",
            "value": ""
        },
        "area": {
            "areaType": "",
            "label": "Area",
            "type": "String",
            "value": null
        },
        "areasize": {
            "value": ""
        },
        "components": {
            "label": "Spell Components",
            "type": "String",
            "value": "somatic, verbal"
        },
        "cost": {
            "label": "Cost",
            "type": "String",
            "value": ""
        },
        "damage": {
            "applyMod": false,
            "label": "Spell Damage",
            "type": "String",
            "value": "6d6"
        },
        "damageType": {
            "label": "Damage Type",
            "type": "String",
            "value": "piercing"
        },
        "description": {
            "chat": "",
            "label": "Description",
            "type": "String",
            "unidentified": "",
            "value": "<p>You replicate the attack of a deadly purple worm. You deal 3d6 piercing damage to the touched creature and afflict it with purple worm venom. The target must attempt a Fortitude save.</p>\n<p><strong>Critical Success</strong> The target is unaffected.<br /><strong>Success</strong> The target takes 3d6 poison damage.<br /><strong>Failure</strong> The target is afflicted with purple worm venom at stage 1.<br /><strong>Critical Failure</strong> The target is afflicted with purple worm venom at stage 2.</p>\n<hr />\n<p><strong>Purple Worm Venom</strong> (poison)</p><p><strong>Level</strong> 11</p><p><strong>Maximum Duration</strong> 6 rounds. <strong>Stage 1</strong> 3d6 poison damage and @Compendium[pf2e.conditionitems.Enfeebled]{Enfeebled} 2 (1 round)</p><p><strong>Stage 2</strong> 4d6 poison damage and Enfeebled 2 (1 round)</p><p><strong>Stage 3</strong> 6d6 poison damage and Enfeebled 2 (1 round).</p>"
        },
        "duration": {
            "label": "Duration",
            "type": "String",
            "value": ""
        },
        "level": {
            "label": "Spell Level",
            "type": "Number",
            "value": 6
        },
        "location": {
            "label": "Spellcasting Entry Location",
            "type": "String",
            "value": ""
        },
        "materials": {
            "label": "Materials",
            "type": "String",
            "value": ""
        },
        "prepared": {
            "label": "Prepared Spell",
            "type": "String",
            "value": ""
        },
        "primarycheck": {
            "value": ""
        },
        "range": {
            "label": "Range",
            "type": "String",
            "value": "touch"
        },
        "rarity": {
            "value": "common"
        },
        "save": {
            "basic": "",
            "label": "Saving Throw",
            "type": "String",
            "value": "fortitude"
        },
        "scaling": {
            "formula": "",
            "mode": "none"
        },
        "school": {
            "label": "Spell School",
            "type": "String",
            "value": "nec"
        },
        "secondarycasters": {
            "value": ""
        },
        "secondarycheck": {
            "value": ""
        },
        "source": {
            "label": "Source",
            "type": "String",
            "value": "https://2e.aonprd.com/Spells.aspx?ID=242"
        },
        "spellCategorie": {
            "value": "spell"
        },
        "spellCategory": {
            "value": ""
        },
        "spellType": {
            "label": "Spell Type",
            "type": "String",
            "value": "save"
        },
        "sustained": {
            "label": "Can be Sustained",
            "type": "Boolean",
            "value": false
        },
        "target": {
            "label": "Target",
            "type": "String",
            "value": "1 creature"
        },
        "time": {
            "label": "Casting Time",
            "type": "String",
            "value": "2"
        },
        "traditions": {
            "label": "Spell Traditions",
            "type": "String",
            "value": [
                "arcane",
                "primal"
            ]
        },
        "traits": {
            "label": "Spell Traits",
            "rarity": {
                "value": "common"
            },
            "type": "String",
            "value": [
                "necromancy",
                "poison"
            ]
        },
        "usage": {
            "value": "held-in-one-hand"
        }
    },
    "flags": {},
    "img": "systems/pf2e/icons/spells/purple-worm-sting.jpg",
    "name": "Purple Worm Sting",
    "permission": {
        "default": 0
    },
    "type": "spell"
}
