{
    "_id": "D6T17BdazhNy3KPm",
    "data": {
        "ability": {
            "value": ""
        },
        "area": {
            "value": ""
        },
        "areasize": {
            "value": ""
        },
        "components": {
            "value": "somatic"
        },
        "cost": {
            "value": ""
        },
        "damage": {
            "applyMod": false,
            "value": "1d4"
        },
        "damageType": {
            "value": "negative"
        },
        "description": {
            "chat": "",
            "unidentified": "",
            "value": "<p>You siphon off a portion of the target's soul to bolster your<br />own vitality. The target must attempt a Fortitude save or take [[/r 1d4 #negative]] negative damage. You gain temporary Hit Points equal to the total amount of HP the target loses, including the HP lost from becoming @Compendium[pf2e.conditionitems.Drained]{Drained}.</p>\n<hr />\n<p><strong>Critical Success</strong> The creature is unaffected.</p>\n<p><strong>Success</strong> The creature takes half damage.</p>\n<p><strong>Failure</strong> The creature takes full damage and becomes<br />Drained 1.</p>\n<p><strong>Critical Failure</strong> The creature takes double damage and<br />becomes Drained 2.</p>\n<hr />\n<p><strong>Heightened (+1)</strong> Increase the damage by [[/r 1d4 #negative]].</p>"
        },
        "duration": {
            "value": ""
        },
        "level": {
            "value": 1
        },
        "location": {
            "value": ""
        },
        "materials": {
            "value": ""
        },
        "prepared": {
            "value": ""
        },
        "primarycheck": {
            "value": ""
        },
        "range": {
            "value": "30 feet"
        },
        "rarity": {
            "value": "common"
        },
        "rules": [],
        "save": {
            "basic": "",
            "value": "fortitude"
        },
        "scaling": {
            "formula": "1d4",
            "mode": "level1"
        },
        "school": {
            "value": "nec"
        },
        "secondarycasters": {
            "value": ""
        },
        "secondarycheck": {
            "value": ""
        },
        "source": {
            "value": ""
        },
        "spellCategorie": {
            "value": "focus"
        },
        "spellCategory": {
            "value": ""
        },
        "spellType": {
            "value": "save"
        },
        "sustained": {
            "value": false
        },
        "target": {
            "value": "1 living creature"
        },
        "time": {
            "value": "1"
        },
        "traditions": {
            "value": []
        },
        "traits": {
            "custom": "",
            "rarity": {
                "value": "uncommon"
            },
            "value": [
                "necromancy",
                "negative",
                "oracle"
            ]
        },
        "usage": {
            "value": "held-in-one-hand"
        }
    },
    "effects": [],
    "flags": {},
    "img": "systems/pf2e/icons/spells/soul-siphon.jpg",
    "name": "Soul Siphon",
    "permission": {
        "default": 0
    },
    "type": "spell"
}
