{
    "_id": "60sgbuMWN0268dB7",
    "data": {
        "ability": {
            "label": "Spellcasting Ability",
            "type": "String",
            "value": ""
        },
        "area": {
            "areaType": "",
            "label": "Area",
            "type": "String",
            "value": null
        },
        "areasize": {
            "value": ""
        },
        "components": {
            "label": "Spell Components",
            "type": "String",
            "value": "somatic, verbal"
        },
        "cost": {
            "label": "Cost",
            "type": "String",
            "value": ""
        },
        "damage": {
            "applyMod": true,
            "label": "Spell Damage",
            "type": "String",
            "value": "1d6"
        },
        "damageType": {
            "label": "Damage Type",
            "type": "String",
            "value": ""
        },
        "description": {
            "chat": "",
            "label": "Description",
            "type": "String",
            "unidentified": "",
            "value": "<p>You hurl a loose, unattended object that is within range and that has 1 Bulk or less at the target. Make a spell attack attack against the target. If you hit, you deal bludgeoning, piercing, or slashing damage-as appropriate for the object you hurled-equal to 1d6 plus your spellcasting ability modifier. No specific traits or magic properties of the hurled item affect the attack or the damage.</p>\n<p>\n</p><hr /><b>Critical Success</b>  You deal double damage.<p></p>\n<p>\n<b>Success</b>  You deal full damage.</p>\n<p>\n</p><hr /><b>Heightened (+1)</b>  The damage increases by 1d6.<p></p>"
        },
        "duration": {
            "label": "Duration",
            "type": "String",
            "value": ""
        },
        "level": {
            "label": "Spell Level",
            "type": "Number",
            "value": 0
        },
        "location": {
            "label": "Spellcasting Entry Location",
            "type": "String",
            "value": ""
        },
        "materials": {
            "label": "Materials",
            "type": "String",
            "value": ""
        },
        "prepared": {
            "label": "Prepared Spell",
            "type": "String",
            "value": ""
        },
        "primarycheck": {
            "value": ""
        },
        "range": {
            "label": "Range",
            "type": "String",
            "value": "30 feet"
        },
        "rarity": {
            "value": "common"
        },
        "rules": [],
        "save": {
            "basic": "",
            "label": "Saving Throw",
            "type": "String",
            "value": ""
        },
        "scaling": {
            "formula": "1d6",
            "mode": "level1"
        },
        "school": {
            "label": "Spell School",
            "type": "String",
            "value": "evo"
        },
        "secondarycasters": {
            "value": ""
        },
        "secondarycheck": {
            "value": ""
        },
        "source": {
            "label": "Source",
            "type": "String",
            "value": "https://2e.aonprd.com/Spells.aspx?ID=334"
        },
        "spellCategorie": {
            "value": "spell"
        },
        "spellCategory": {
            "value": ""
        },
        "spellType": {
            "label": "Spell Type",
            "type": "String",
            "value": "attack"
        },
        "sustained": {
            "label": "Can be Sustained",
            "type": "Boolean",
            "value": false
        },
        "target": {
            "label": "Target",
            "type": "String",
            "value": "1 creature"
        },
        "time": {
            "label": "Casting Time",
            "type": "String",
            "value": "2"
        },
        "traditions": {
            "label": "Spell Traditions",
            "type": "String",
            "value": [
                "arcane",
                "occult"
            ]
        },
        "traits": {
            "label": "Spell Traits",
            "rarity": {
                "value": "common"
            },
            "type": "String",
            "value": [
                "attack",
                "cantrip",
                "evocation"
            ]
        },
        "usage": {
            "value": "held-in-one-hand"
        }
    },
    "effects": [],
    "flags": {},
    "img": "systems/pf2e/icons/spells/telekinetic-projectile.jpg",
    "name": "Telekinetic Projectile",
    "permission": {
        "default": 0
    },
    "type": "spell"
}
