{
    "_id": "k9x6bXXpIgAXMDsx",
    "data": {
        "ability": {
            "value": ""
        },
        "area": {
            "areaType": "",
            "value": null
        },
        "areasize": {
            "value": ""
        },
        "components": {
            "value": "somatic, verbal"
        },
        "cost": {
            "value": ""
        },
        "damage": {
            "applyMod": false,
            "value": ""
        },
        "damageType": {
            "value": ""
        },
        "description": {
            "chat": "",
            "unidentified": "",
            "value": "<p><span>You surround yourself in a vortex of whirling colorful scarves of force that obfuscate you and disorient your foes. You gain the benefits of the @Compendium[pf2e.conditionitems.Concealed]{Concealed} condition, but only against ranged and melee attacks. When a melee attack fails to hit you because of the flat check for the Concealed condition, the scarves snag the weapon or unarmed attack, and the creature takes a -1 circumstance penalty to further attacks with that weapon or unarmed attack until the end of its turn (or the end of its next turn, if it wasn't the creature's turn). The timing of the scarves' movement is harder to predict for ranged attackers, so the flat check for the Concealed condition against ranged attacks increases from DC 5 to DC 6. You can Dismiss this spell.</span></p>\n<hr />\n<p><strong>Heightened (+2)</strong> The circumstance penalty to further attacks with a melee weapon or unarmed attack the scarves snag increases by 1. The DC of the flat check for the Concealed condition against ranged attacks increases by 1.</p>"
        },
        "duration": {
            "value": "1 minute"
        },
        "level": {
            "value": 3
        },
        "location": {
            "value": ""
        },
        "materials": {
            "value": ""
        },
        "prepared": {
            "value": ""
        },
        "primarycheck": {
            "value": ""
        },
        "range": {
            "value": ""
        },
        "rarity": {
            "value": "common"
        },
        "rules": [],
        "save": {
            "basic": "",
            "value": ""
        },
        "scaling": {
            "formula": "",
            "mode": "none"
        },
        "school": {
            "value": "abj"
        },
        "secondarycasters": {
            "value": ""
        },
        "secondarycheck": {
            "value": ""
        },
        "source": {
            "value": ""
        },
        "spellCategorie": {
            "value": "spell"
        },
        "spellCategory": {
            "value": ""
        },
        "spellType": {
            "value": "attack"
        },
        "sustained": {
            "value": false
        },
        "target": {
            "value": ""
        },
        "time": {
            "value": "2"
        },
        "traditions": {
            "custom": "",
            "value": [
                "occult",
                "divine"
            ]
        },
        "traits": {
            "custom": "",
            "rarity": {
                "value": "common"
            },
            "value": [
                "force",
                "abjuration"
            ]
        },
        "usage": {
            "value": "held-in-one-hand"
        }
    },
    "effects": [],
    "flags": {},
    "img": "systems/pf2e/icons/spells/whirling-scarves.jpg",
    "name": "Whirling Scarves",
    "permission": {
        "default": 0
    },
    "type": "spell"
}
