{
    "_id": "7tp97g0UCJ9wOrd5",
    "data": {
        "ability": {
            "value": ""
        },
        "area": {
            "areaType": "",
            "value": null
        },
        "areasize": {
            "value": ""
        },
        "components": {
            "value": "somatic, verbal"
        },
        "cost": {
            "value": ""
        },
        "damage": {
            "applyMod": false,
            "value": "1d12"
        },
        "damageType": {
            "value": "negative"
        },
        "description": {
            "chat": "",
            "unidentified": "",
            "value": "<p>Your touch rots organic material and decays objects. Make a melee spell attack roll. Your touch deals 1d12 negative damage plus 1d4 persistent negative damage. If a creature uses an item to block withering grasp, such as with the Shield Block reaction, the item is automatically affected, but the creature does not take damage (even if there is damage left over after the shield's Hardness). Unlike normal negative damage, the negative damage from <em>withering grasp</em> damages objects, constructs, and the like by eroding them away.</p>\n<hr />\n<p><span><strong>Critical Success</strong> Your touch deals double damage (both initial and persistent). If you target an object, lower its Hardness by 4 for 1 minute.</span></p>\n<p><span><strong>Success</strong> Your touch deals full damage. If you target an object, lower its Hardness by 2 for 1 minute.</span></p>\n<hr />\n<p><strong>Heightened (+1)</strong> The damage increases by 1d12 and the @Compendium[pf2e.conditionitems.Persistent Damage]{Persistent Damage} increases by 1. If you target an object, lower its Hardness by an additional 1 point on both a success and a critical success.</p>"
        },
        "duration": {
            "value": ""
        },
        "level": {
            "value": 1
        },
        "location": {
            "value": ""
        },
        "materials": {
            "value": ""
        },
        "prepared": {
            "value": ""
        },
        "primarycheck": {
            "value": ""
        },
        "range": {
            "value": "touch"
        },
        "rarity": {
            "value": "common"
        },
        "rules": [],
        "save": {
            "basic": "",
            "value": ""
        },
        "scaling": {
            "formula": "1d12",
            "mode": "level1"
        },
        "school": {
            "value": "nec"
        },
        "secondarycasters": {
            "value": ""
        },
        "secondarycheck": {
            "value": ""
        },
        "source": {
            "value": ""
        },
        "spellCategorie": {
            "value": "focus"
        },
        "spellCategory": {
            "value": ""
        },
        "spellType": {
            "value": "attack"
        },
        "sustained": {
            "value": false
        },
        "target": {
            "value": "1 creature or object"
        },
        "time": {
            "value": "2"
        },
        "traditions": {
            "custom": "",
            "value": [
                "focus"
            ]
        },
        "traits": {
            "custom": "",
            "rarity": {
                "value": "uncommon"
            },
            "value": [
                "cleric",
                "necromancy",
                "negative"
            ]
        },
        "usage": {
            "value": "held-in-one-hand"
        }
    },
    "effects": [],
    "flags": {},
    "img": "systems/pf2e/icons/spells/withering-grasp.jpg",
    "name": "Withering Grasp",
    "permission": {
        "default": 0
    },
    "type": "spell"
}
