{
    "_id": "eFsD7W6hnK33jlDQ",
    "data": {
        "actionCategory": {
            "value": ""
        },
        "actionType": {
            "value": "passive"
        },
        "actions": {
            "value": null
        },
        "description": {
            "chat": "",
            "unidentified": "",
            "value": "<p>You come from a long line of ysoki from a community based in the sewers beneath a large settlement. You are immune to the disease filth fever. Each of your successful saving throws against a disease or poison reduces its stage by 2, or by 1 for a virulent disease or poison. Each critical success against an ongoing disease or poison reduces its stage by 3, or by 2 for a virulent disease or poison.</p>"
        },
        "featType": {
            "value": "ancestryfeature"
        },
        "level": {
            "value": "1"
        },
        "prerequisites": {
            "value": null
        },
        "rarity": {
            "value": "common"
        },
        "rules": [],
        "source": {
            "value": ""
        },
        "traits": {
            "custom": "",
            "rarity": {
                "value": "common"
            },
            "value": [
                "ratfolk"
            ]
        },
        "usage": {
            "value": "held-in-one-hand"
        }
    },
    "effects": [],
    "flags": {},
    "img": "systems/pf2e/icons/features/ancestry/sewer-rat.jpg",
    "name": "Sewer Rat",
    "permission": {
        "default": 0
    },
    "type": "feat"
}
