{
    "_id": "dJeiekfqGQ8dkwsO",
    "data": {
        "actionCategory": {
            "value": ""
        },
        "actionType": {
            "value": "passive"
        },
        "actions": {
            "value": null
        },
        "description": {
            "chat": "",
            "unidentified": "",
            "value": "<p>Your family is descended from the most common lizardfolk heritage, and you are accustomed to aquatic environments. You gain a 15-foot @Compendium[pf2e.actionspf2e.Swim]{Swim} Speed.</p>"
        },
        "featType": {
            "value": "ancestryfeature"
        },
        "level": {
            "value": "1"
        },
        "prerequisites": {
            "value": null
        },
        "rarity": {
            "value": "common"
        },
        "rules": [],
        "source": {
            "value": ""
        },
        "traits": {
            "custom": "",
            "rarity": {
                "value": "common"
            },
            "value": [
                "lizardfolk"
            ]
        },
        "usage": {
            "value": "held-in-one-hand"
        }
    },
    "effects": [],
    "flags": {},
    "img": "systems/pf2e/icons/features/ancestry/wetlander-lizardfolk.jpg",
    "name": "Wetlander Lizardfolk",
    "permission": {
        "default": 0
    },
    "type": "feat"
}
