{
    "_id": "xVMouu7E7Xy7AGER",
    "data": {
        "actionCategory": {
            "value": ""
        },
        "actionType": {
            "value": "passive"
        },
        "actions": {
            "value": ""
        },
        "containerId": {
            "value": ""
        },
        "description": {
            "chat": "",
            "unidentified": "",
            "value": "<p><strong>[Advanced]</strong></p>\n<p><strong>Effect</strong>: The underlying idea for this scenario came from a creative and enthusiastic audience at an adventure design panel at PaizoCon. You can slot this special boon only while playing a game at a convention. If you do, you begin the adventure with one additional Hero Point.</p>"
        },
        "featType": {
            "value": "pfsboon"
        },
        "level": {
            "value": "0"
        },
        "prerequisites": {
            "value": ""
        },
        "rarity": {
            "value": "common"
        },
        "source": {
            "value": ""
        },
        "traits": {
            "custom": "",
            "rarity": {
                "value": "common"
            },
            "selected": {},
            "value": []
        },
        "usage": {
            "value": "held-in-one-hand"
        }
    },
    "flags": {},
    "img": "systems/pf2e/icons/default-icons/mystery-man.png",
    "name": "S1-13 - Convention Hero",
    "permission": {
        "default": 0
    },
    "type": "feat"
}
