{
    "_id": "rddlbymeG9KbQYQM",
    "data": {
        "actionCategory": {
            "value": ""
        },
        "actionType": {
            "value": "passive"
        },
        "actions": {
            "value": ""
        },
        "containerId": {
            "value": ""
        },
        "description": {
            "chat": "",
            "unidentified": "",
            "value": "<p><strong>[Ally]</strong></p>\n<p><strong>Prerequisites:</strong> Tier 2 with the Grand Archive</p>\n<p><strong>Cost</strong>: 4 Fame</p>\n<p><strong>Effect</strong>: You have recruited a capable linguist who accompanies you on your adventures. This ally speaks, reads, and understands Common as well as two additional languages of common rarity chosen when this boon is purchased. The ally can quickly translate any of these languages for your benefit, effectively allowing you to communicate in the additional two languages without difficulty. However, you are not treated as knowing those languages for the purpose of using spells with the linguistic trait.</p>"
        },
        "featType": {
            "value": "pfsboon"
        },
        "level": {
            "value": "0"
        },
        "prerequisites": {
            "value": ""
        },
        "rarity": {
            "value": "common"
        },
        "source": {
            "value": ""
        },
        "traits": {
            "custom": "",
            "rarity": {
                "value": "common"
            },
            "selected": {},
            "value": []
        },
        "usage": {
            "value": "held-in-one-hand"
        }
    },
    "flags": {},
    "img": "systems/pf2e/icons/default-icons/mystery-man.png",
    "name": "Translator",
    "permission": {
        "default": 0
    },
    "type": "feat"
}
