{
    "_id": "U6QqFDstHNjEeOUS",
    "data": {
        "actionCategory": {
            "value": ""
        },
        "actionType": {
            "value": "action"
        },
        "actions": {
            "value": "1"
        },
        "containerId": {
            "value": ""
        },
        "description": {
            "chat": "",
            "unidentified": "",
            "value": "<p><strong>[Item]</strong></p>\n<p><strong>Prerequisites</strong>: Tier 2 with the Horizon Hunters; You own a @Compendium[pf2e.equipment-srd.Wayfinder]{Wayfinder}</p>\n<p><strong>Cost</strong>: 2 Fame</p>\n<p><strong>Action</strong>: Single Action</p>\n<p><strong>Effect</strong>: You have modified your @Compendium[pf2e.equipment-srd.Wayfinder]{Wayfinder} to absorb a small amount of your exhaustion, allowing you to continue exploring unhindered. When you slot this boon, you apply its benefits to one @Compendium[pf2e.equipment-srd.Wayfinder]{Wayfinder} in your possession, granting you a special ability when the @Compendium[pf2e.equipment-srd.Wayfinder]{Wayfinder} is invested and in your possession.</p>\n<p>As an action, you can reduce the severity of your @Compendium[pf2e.conditionitems.Clumsy]{Clumsy}, @Compendium[pf2e.conditionitems.Enfeebled]{Enfeebled}, or @Compendium[pf2e.conditionitems.Sickened]{Sickened} condition, reducing that condition's value by 1.</p>\n<p>You can safely use this benefit once per adventure. You can attempt to use it a second time, overcharging the @Compendium[pf2e.equipment-srd.Wayfinder]{Wayfinder} at the risk of destroying it. When you do so, roll a DC 10 flat check. On a success, the @Compendium[pf2e.equipment-srd.Wayfinder]{Wayfinder} is broken. On a failure, the <em>wayfinder</em> is destroyed. If anyone tries to overcharge a @Compendium[pf2e.equipment-srd.Wayfinder]{Wayfinder} that's already been overcharged, the item is automatically destroyed (even if it has been repaired) and does not provide the activated benefit.</p>"
        },
        "featType": {
            "value": "pfsboon"
        },
        "level": {
            "value": "0"
        },
        "prerequisites": {
            "value": ""
        },
        "rarity": {
            "value": "common"
        },
        "source": {
            "value": ""
        },
        "traits": {
            "custom": "",
            "rarity": {
                "value": "common"
            },
            "selected": {},
            "value": []
        },
        "usage": {
            "value": "held-in-one-hand"
        }
    },
    "flags": {},
    "img": "systems/pf2e/icons/default-icons/mystery-man.png",
    "name": "Wayfinder, Rugged",
    "permission": {
        "default": 0
    },
    "type": "feat"
}
